ue1/doc/cordic_trace.vcd
$date
     Mar 30, 2020       14:51:23
$end

$version
 SystemC 2.3.3-Accellera --- Mar 18 2020 13:50:00
$end

$timescale
     1 ps
$end

$scope module SystemC $end
$var wire    1  aaaaa  startCordic       $end
$var wire    1  aaaab  cordicReady       $end
$var wire   22  aaaac  PHI [21:0]  $end
$var wire   16  aaaad  X [15:0]  $end
$var wire   16  aaaae  Y [15:0]  $end
$upscope $end
$enddefinitions  $end

$comment
All initial values are dumped below at time 0 sec = 0 timescale units.
$end

$dumpvars
1aaaaa
0aaaab
b0 aaaac
b0 aaaad
b0 aaaae
$end

#1
1aaaab
b1111111111111111 aaaad

#2
0aaaaa
0aaaab

#3
1aaaaa
b100000110001 aaaac

#4
1aaaab
b1000011 aaaae

#5
0aaaaa
0aaaab

#6
1aaaaa
b1000001100010 aaaac

#7
1aaaab
b10000011 aaaae

#8
0aaaaa
0aaaab

#9
1aaaaa
b1100010010011 aaaac

#10
1aaaab
b11000011 aaaae

#11
0aaaaa
0aaaab

#12
1aaaaa
b10000011000101 aaaac

#13
1aaaab
b100000111 aaaae

#14
0aaaaa
0aaaab

#15
1aaaaa
b10100011110110 aaaac

#16
1aaaab
b101000111 aaaae

#17
0aaaaa
0aaaab

#18
1aaaaa
b11000100100111 aaaac

#19
1aaaab
b110001011 aaaae

#20
0aaaaa
0aaaab

#21
1aaaaa
b11100101011000 aaaac

#22
1aaaab
b1111111111111110 aaaad
b111001011 aaaae

#23
0aaaaa
0aaaab

#24
1aaaaa
b100000110001001 aaaac

#25
1aaaab
b1000001011 aaaae

#26
0aaaaa
0aaaab

#27
1aaaaa
b100100110111010 aaaac

#28
1aaaab
b1111111111111101 aaaad
b1001001111 aaaae

#29
0aaaaa
0aaaab

#30
1aaaaa
b101000111101100 aaaac

#31
1aaaab
b1010001111 aaaae

#32
0aaaaa
0aaaab

#33
1aaaaa
b101101000011101 aaaac

#34
1aaaab
b1111111111111100 aaaad
b1011010011 aaaae

#35
0aaaaa
0aaaab

#36
1aaaaa
b110001001001110 aaaac

#37
1aaaab
b1111111111111011 aaaad
b1100010011 aaaae

#38
0aaaaa
0aaaab

#39
1aaaaa
b110101001111111 aaaac

#40
1aaaab
b1111111111111010 aaaad
b1101010011 aaaae

#41
0aaaaa
0aaaab

#42
1aaaaa
b111001010110000 aaaac

#43
1aaaab
b1110010111 aaaae

#44
0aaaaa
0aaaab

#45
1aaaaa
b111101011100001 aaaac

#46
1aaaab
b1111111111111001 aaaad
b1111010110 aaaae

#47
0aaaaa
0aaaab

#48
1aaaaa
b1000001100010010 aaaac

#49
1aaaab
b1111111111111000 aaaad
b10000011010 aaaae

#50
0aaaaa
0aaaab

#51
1aaaaa
b1000101101000100 aaaac

#52
1aaaab
b1111111111110111 aaaad
b10001011010 aaaae

#53
0aaaaa
0aaaab

#54
1aaaaa
b1001001101110101 aaaac

#55
1aaaab
b1111111111110101 aaaad
b10010011010 aaaae

#56
0aaaaa
0aaaab

#57
1aaaaa
b1001101110100110 aaaac

#58
1aaaab
b1111111111110100 aaaad
b10011011110 aaaae

#59
0aaaaa
0aaaab

#60
1aaaaa
b1010001111010111 aaaac

#61
1aaaab
b1111111111110011 aaaad
b10100011110 aaaae

#62
0aaaaa
0aaaab

#63
1aaaaa
b1010110000001000 aaaac

#64
1aaaab
b1111111111110010 aaaad
b10101100010 aaaae

#65
0aaaaa
0aaaab

#66
1aaaaa
b1011010000111001 aaaac

#67
1aaaab
b1111111111110000 aaaad
b10110100010 aaaae

#68
0aaaaa
0aaaab

#69
1aaaaa
b1011110001101010 aaaac

#70
1aaaab
b1111111111101111 aaaad
b10111100010 aaaae

#71
0aaaaa
0aaaab

#72
1aaaaa
b1100010010011100 aaaac

#73
1aaaab
b1111111111101101 aaaad
b11000100110 aaaae

#74
0aaaaa
0aaaab

#75
1aaaaa
b1100110011001101 aaaac

#76
1aaaab
b1111111111101100 aaaad
b11001100110 aaaae

#77
0aaaaa
0aaaab

#78
1aaaaa
b1101010011111110 aaaac

#79
1aaaab
b1111111111101010 aaaad
b11010101010 aaaae

#80
0aaaaa
0aaaab

#81
1aaaaa
b1101110100101111 aaaac

#82
1aaaab
b1111111111101000 aaaad
b11011101001 aaaae

#83
0aaaaa
0aaaab

#84
1aaaaa
b1110010101100000 aaaac

#85
1aaaab
b1111111111100110 aaaad
b11100101001 aaaae

#86
0aaaaa
0aaaab

#87
1aaaaa
b1110110110010001 aaaac

#88
1aaaab
b1111111111100100 aaaad
b11101101101 aaaae

#89
0aaaaa
0aaaab

#90
1aaaaa
b1111010111000011 aaaac

#91
1aaaab
b1111111111100011 aaaad
b11110101101 aaaae

#92
0aaaaa
0aaaab

#93
1aaaaa
b1111110111110100 aaaac

#94
1aaaab
b1111111111100001 aaaad
b11111101101 aaaae

#95
0aaaaa
0aaaab

#96
1aaaaa
b10000011000100101 aaaac

#97
1aaaab
b1111111111011110 aaaad
b100000110001 aaaae

#98
0aaaaa
0aaaab

#99
1aaaaa
b10000111001010110 aaaac

#100
1aaaab
b1111111111011100 aaaad
b100001110001 aaaae

#101
0aaaaa
0aaaab

#102
1aaaaa
b10001011010000111 aaaac

#103
1aaaab
b1111111111011010 aaaad
b100010110101 aaaae

#104
0aaaaa
0aaaab

#105
1aaaaa
b10001111010111000 aaaac

#106
1aaaab
b1111111111011000 aaaad
b100011110101 aaaae

#107
0aaaaa
0aaaab

#108
1aaaaa
b10010011011101001 aaaac

#109
1aaaab
b1111111111010110 aaaad
b100100110101 aaaae

#110
0aaaaa
0aaaab

#111
1aaaaa
b10010111100011011 aaaac

#112
1aaaab
b1111111111010011 aaaad
b100101111001 aaaae

#113
0aaaaa
0aaaab

#114
1aaaaa
b10011011101001100 aaaac

#115
1aaaab
b1111111111010001 aaaad
b100110111001 aaaae

#116
0aaaaa
0aaaab

#117
1aaaaa
b10011111101111101 aaaac

#118
1aaaab
b1111111111001110 aaaad
b100111111101 aaaae

#119
0aaaaa
0aaaab

#120
1aaaaa
b10100011110101110 aaaac

#121
1aaaab
b1111111111001100 aaaad
b101000111101 aaaae

#122
0aaaaa
0aaaab

#123
1aaaaa
b10100111111011111 aaaac

#124
1aaaab
b1111111111001001 aaaad
b101001111101 aaaae

#125
0aaaaa
0aaaab

#126
1aaaaa
b10101100000010000 aaaac

#127
1aaaab
b1111111111000110 aaaad
b101011000001 aaaae

#128
0aaaaa
0aaaab

#129
1aaaaa
b10110000001000010 aaaac

#130
1aaaab
b1111111111000011 aaaad
b101100000001 aaaae

#131
0aaaaa
0aaaab

#132
1aaaaa
b10110100001110011 aaaac

#133
1aaaab
b1111111111000001 aaaad
b101101000001 aaaae

#134
0aaaaa
0aaaab

#135
1aaaaa
b10111000010100100 aaaac

#136
1aaaab
b1111111110111110 aaaad
b101110000101 aaaae

#137
0aaaaa
0aaaab

#138
1aaaaa
b10111100011010101 aaaac

#139
1aaaab
b1111111110111011 aaaad
b101111000101 aaaae

#140
0aaaaa
0aaaab

#141
1aaaaa
b11000000100000110 aaaac

#142
1aaaab
b1111111110111000 aaaad
b110000001000 aaaae

#143
0aaaaa
0aaaab

#144
1aaaaa
b11000100100110111 aaaac

#145
1aaaab
b1111111110110101 aaaad
b110001001000 aaaae

#146
0aaaaa
0aaaab

#147
1aaaaa
b11001000101101000 aaaac

#148
1aaaab
b1111111110110001 aaaad
b110010001000 aaaae

#149
0aaaaa
0aaaab

#150
1aaaaa
b11001100110011010 aaaac

#151
1aaaab
b1111111110101110 aaaad
b110011001100 aaaae

#152
0aaaaa
0aaaab

#153
1aaaaa
b11010000111001011 aaaac

#154
1aaaab
b1111111110101011 aaaad
b110100001100 aaaae

#155
0aaaaa
0aaaab

#156
1aaaaa
b11010100111111100 aaaac

#157
1aaaab
b1111111110100111 aaaad
b110101010000 aaaae

#158
0aaaaa
0aaaab

#159
1aaaaa
b11011001000101101 aaaac

#160
1aaaab
b1111111110100100 aaaad
b110110010000 aaaae

#161
0aaaaa
0aaaab

#162
1aaaaa
b11011101001011110 aaaac

#163
1aaaab
b1111111110100001 aaaad
b110111010000 aaaae

#164
0aaaaa
0aaaab

#165
1aaaaa
b11100001010001111 aaaac

#166
1aaaab
b1111111110011101 aaaad
b111000010100 aaaae

#167
0aaaaa
0aaaab

#168
1aaaaa
b11100101011000001 aaaac

#169
1aaaab
b1111111110011001 aaaad
b111001010100 aaaae

#170
0aaaaa
0aaaab

#171
1aaaaa
b11101001011110010 aaaac

#172
1aaaab
b1111111110010101 aaaad
b111010011000 aaaae

#173
0aaaaa
0aaaab

#174
1aaaaa
b11101101100100011 aaaac

#175
1aaaab
b1111111110010010 aaaad
b111011010111 aaaae

#176
0aaaaa
0aaaab

#177
1aaaaa
b11110001101010100 aaaac

#178
1aaaab
b1111111110001110 aaaad
b111100010111 aaaae

#179
0aaaaa
0aaaab

#180
1aaaaa
b11110101110000101 aaaac

#181
1aaaab
b1111111110001010 aaaad
b111101011011 aaaae

#182
0aaaaa
0aaaab

#183
1aaaaa
b11111001110110110 aaaac

#184
1aaaab
b1111111110000110 aaaad
b111110011011 aaaae

#185
0aaaaa
0aaaab

#186
1aaaaa
b11111101111100111 aaaac

#187
1aaaab
b1111111110000010 aaaad
b111111011011 aaaae

#188
0aaaaa
0aaaab

#189
1aaaaa
b100000010000011001 aaaac

#190
1aaaab
b1111111101111110 aaaad
b1000000011111 aaaae

#191
0aaaaa
0aaaab

#192
1aaaaa
b100000110001001010 aaaac

#193
1aaaab
b1111111101111010 aaaad
b1000001011111 aaaae

#194
0aaaaa
0aaaab

#195
1aaaaa
b100001010001111011 aaaac

#196
1aaaab
b1111111101110101 aaaad
b1000010100011 aaaae

#197
0aaaaa
0aaaab

#198
1aaaaa
b100001110010101100 aaaac

#199
1aaaab
b1111111101110001 aaaad
b1000011100010 aaaae

#200
0aaaaa
0aaaab

#201
1aaaaa
b100010010011011101 aaaac

#202
1aaaab
b1111111101101101 aaaad
b1000100100010 aaaae

#203
0aaaaa
0aaaab

#204
1aaaaa
b100010110100001110 aaaac

#205
1aaaab
b1111111101101000 aaaad
b1000101100110 aaaae

#206
0aaaaa
0aaaab

#207
1aaaaa
b100011010100111111 aaaac

#208
1aaaab
b1111111101100100 aaaad
b1000110100110 aaaae

#209
0aaaaa
0aaaab

#210
1aaaaa
b100011110101110001 aaaac

#211
1aaaab
b1111111101011111 aaaad
b1000111101010 aaaae

#212
0aaaaa
0aaaab

#213
1aaaaa
b100100010110100010 aaaac

#214
1aaaab
b1111111101011011 aaaad
b1001000101010 aaaae

#215
0aaaaa
0aaaab

#216
1aaaaa
b100100110111010011 aaaac

#217
1aaaab
b1111111101010110 aaaad
b1001001101001 aaaae

#218
0aaaaa
0aaaab

#219
1aaaaa
b100101011000000100 aaaac

#220
1aaaab
b1111111101010001 aaaad
b1001010101101 aaaae

#221
0aaaaa
0aaaab

#222
1aaaaa
b100101111000110101 aaaac

#223
1aaaab
b1111111101001101 aaaad
b1001011101101 aaaae

#224
0aaaaa
0aaaab

#225
1aaaaa
b100110011001100110 aaaac

#226
1aaaab
b1111111101001000 aaaad
b1001100101101 aaaae

#227
0aaaaa
0aaaab

#228
1aaaaa
b100110111010011000 aaaac

#229
1aaaab
b1111111101000011 aaaad
b1001101110001 aaaae

#230
0aaaaa
0aaaab

#231
1aaaaa
b100111011011001001 aaaac

#232
1aaaab
b1111111100111110 aaaad
b1001110110000 aaaae

#233
0aaaaa
0aaaab

#234
1aaaaa
b100111111011111010 aaaac

#235
1aaaab
b1111111100111001 aaaad
b1001111110100 aaaae

#236
0aaaaa
0aaaab

#237
1aaaaa
b101000011100101011 aaaac

#238
1aaaab
b1111111100110100 aaaad
b1010000110100 aaaae

#239
0aaaaa
0aaaab

#240
1aaaaa
b101000111101011100 aaaac

#241
1aaaab
b1111111100101111 aaaad
b1010001110100 aaaae

#242
0aaaaa
0aaaab

#243
1aaaaa
b101001011110001101 aaaac

#244
1aaaab
b1111111100101001 aaaad
b1010010110111 aaaae

#245
0aaaaa
0aaaab

#246
1aaaaa
b101001111110111110 aaaac

#247
1aaaab
b1111111100100100 aaaad
b1010011110111 aaaae

#248
0aaaaa
0aaaab

#249
1aaaaa
b101010011111110000 aaaac

#250
1aaaab
b1111111100011110 aaaad
b1010100111011 aaaae

#251
0aaaaa
0aaaab

#252
1aaaaa
b101011000000100001 aaaac

#253
1aaaab
b1111111100011001 aaaad
b1010101111011 aaaae

#254
0aaaaa
0aaaab

#255
1aaaaa
b101011100001010010 aaaac

#256
1aaaab
b1111111100010100 aaaad
b1010110111010 aaaae

#257
0aaaaa
0aaaab

#258
1aaaaa
b101100000010000011 aaaac

#259
1aaaab
b1111111100001110 aaaad
b1010111111110 aaaae

#260
0aaaaa
0aaaab

#261
1aaaaa
b101100100010110100 aaaac

#262
1aaaab
b1111111100001000 aaaad
b1011000111110 aaaae

#263
0aaaaa
0aaaab

#264
1aaaaa
b101101000011100101 aaaac

#265
1aaaab
b1111111100000010 aaaad
b1011010000010 aaaae

#266
0aaaaa
0aaaab

#267
1aaaaa
b101101100100010111 aaaac

#268
1aaaab
b1111111011111101 aaaad
b1011011000001 aaaae

#269
0aaaaa
0aaaab

#270
1aaaaa
b101110000101001000 aaaac

#271
1aaaab
b1111111011110111 aaaad
b1011100000001 aaaae

#272
0aaaaa
0aaaab

#273
1aaaaa
b101110100101111001 aaaac

#274
1aaaab
b1111111011110001 aaaad
b1011101000101 aaaae

#275
0aaaaa
0aaaab

#276
1aaaaa
b101111000110101010 aaaac

#277
1aaaab
b1111111011101011 aaaad
b1011110000101 aaaae

#278
0aaaaa
0aaaab

#279
1aaaaa
b101111100111011011 aaaac

#280
1aaaab
b1111111011100101 aaaad
b1011111000100 aaaae

#281
0aaaaa
0aaaab

#282
1aaaaa
b110000001000001100 aaaac

#283
1aaaab
b1111111011011111 aaaad
b1100000001000 aaaae

#284
0aaaaa
0aaaab

#285
1aaaaa
b110000101000111101 aaaac

#286
1aaaab
b1111111011011001 aaaad
b1100001001000 aaaae

#287
0aaaaa
0aaaab

#288
1aaaaa
b110001001001101111 aaaac

#289
1aaaab
b1111111011010010 aaaad
b1100010001011 aaaae

#290
0aaaaa
0aaaab

#291
1aaaaa
b110001101010100000 aaaac

#292
1aaaab
b1111111011001100 aaaad
b1100011001011 aaaae

#293
0aaaaa
0aaaab

#294
1aaaaa
b110010001011010001 aaaac

#295
1aaaab
b1111111011000110 aaaad
b1100100001011 aaaae

#296
0aaaaa
0aaaab

#297
1aaaaa
b110010101100000010 aaaac

#298
1aaaab
b1111111010111111 aaaad
b1100101001111 aaaae

#299
0aaaaa
0aaaab

#300
1aaaaa
b110011001100110011 aaaac

#301
1aaaab
b1111111010111001 aaaad
b1100110001110 aaaae

#302
0aaaaa
0aaaab

#303
1aaaaa
b110011101101100100 aaaac

#304
1aaaab
b1111111010110010 aaaad
b1100111010010 aaaae

#305
0aaaaa
0aaaab

#306
1aaaaa
b110100001110010110 aaaac

#307
1aaaab
b1111111010101011 aaaad
b1101000010010 aaaae

#308
0aaaaa
0aaaab

#309
1aaaaa
b110100101111000111 aaaac

#310
1aaaab
b1111111010100101 aaaad
b1101001010001 aaaae

#311
0aaaaa
0aaaab

#312
1aaaaa
b110101001111111000 aaaac

#313
1aaaab
b1111111010011110 aaaad
b1101010010101 aaaae

#314
0aaaaa
0aaaab

#315
1aaaaa
b110101110000101001 aaaac

#316
1aaaab
b1111111010010111 aaaad
b1101011010100 aaaae

#317
0aaaaa
0aaaab

#318
1aaaaa
b110110010001011010 aaaac

#319
1aaaab
b1111111010010000 aaaad
b1101100010100 aaaae

#320
0aaaaa
0aaaab

#321
1aaaaa
b110110110010001011 aaaac

#322
1aaaab
b1111111010001001 aaaad
b1101101011000 aaaae

#323
0aaaaa
0aaaab

#324
1aaaaa
b110111010010111100 aaaac

#325
1aaaab
b1111111010000010 aaaad
b1101110010111 aaaae

#326
0aaaaa
0aaaab

#327
1aaaaa
b110111110011101110 aaaac

#328
1aaaab
b1111111001111011 aaaad
b1101111011011 aaaae

#329
0aaaaa
0aaaab

#330
1aaaaa
b111000010100011111 aaaac

#331
1aaaab
b1111111001110100 aaaad
b1110000011010 aaaae

#332
0aaaaa
0aaaab

#333
1aaaaa
b111000110101010000 aaaac

#334
1aaaab
b1111111001101101 aaaad
b1110001011010 aaaae

#335
0aaaaa
0aaaab

#336
1aaaaa
b111001010110000001 aaaac

#337
1aaaab
b1111111001100101 aaaad
b1110010011110 aaaae

#338
0aaaaa
0aaaab

#339
1aaaaa
b111001110110110010 aaaac

#340
1aaaab
b1111111001011110 aaaad
b1110011011101 aaaae

#341
0aaaaa
0aaaab

#342
1aaaaa
b111010010111100011 aaaac

#343
1aaaab
b1111111001010110 aaaad
b1110100100001 aaaae

#344
0aaaaa
0aaaab

#345
1aaaaa
b111010111000010100 aaaac

#346
1aaaab
b1111111001001111 aaaad
b1110101100000 aaaae

#347
0aaaaa
0aaaab

#348
1aaaaa
b111011011001000110 aaaac

#349
1aaaab
b1111111001001000 aaaad
b1110110100000 aaaae

#350
0aaaaa
0aaaab

#351
1aaaaa
b111011111001110111 aaaac

#352
1aaaab
b1111111001000000 aaaad
b1110111100011 aaaae

#353
0aaaaa
0aaaab

#354
1aaaaa
b111100011010101000 aaaac

#355
1aaaab
b1111111000111000 aaaad
b1111000100011 aaaae

#356
0aaaaa
0aaaab

#357
1aaaaa
b111100111011011001 aaaac

#358
1aaaab
b1111111000110001 aaaad
b1111001100011 aaaae

#359
0aaaaa
0aaaab

#360
1aaaaa
b111101011100001010 aaaac

#361
1aaaab
b1111111000101001 aaaad
b1111010100110 aaaae

#362
0aaaaa
0aaaab

#363
1aaaaa
b111101111100111011 aaaac

#364
1aaaab
b1111111000100001 aaaad
b1111011100110 aaaae

#365
0aaaaa
0aaaab

#366
1aaaaa
b111110011101101101 aaaac

#367
1aaaab
b1111111000011001 aaaad
b1111100101001 aaaae

#368
0aaaaa
0aaaab

#369
1aaaaa
b111110111110011110 aaaac

#370
1aaaab
b1111111000010001 aaaad
b1111101101001 aaaae

#371
0aaaaa
0aaaab

#372
1aaaaa
b111111011111001111 aaaac

#373
1aaaab
b1111111000001001 aaaad
b1111110101000 aaaae

#374
0aaaaa
0aaaab

#375
1aaaaa
b1000000000000000000 aaaac

#376
1aaaab
b1111111000000001 aaaad
b1111111101100 aaaae

#377
0aaaaa
0aaaab

#378
1aaaaa
b1000000100000110001 aaaac

#379
1aaaab
b1111110111111001 aaaad
b10000000101011 aaaae

#380
0aaaaa
0aaaab

#381
1aaaaa
b1000001000001100010 aaaac

#382
1aaaab
b1111110111110000 aaaad
b10000001101111 aaaae

#383
0aaaaa
0aaaab

#384
1aaaaa
b1000001100010010011 aaaac

#385
1aaaab
b1111110111101000 aaaad
b10000010101110 aaaae

#386
0aaaaa
0aaaab

#387
1aaaaa
b1000010000011000101 aaaac

#388
1aaaab
b1111110111100000 aaaad
b10000011101110 aaaae

#389
0aaaaa
0aaaab

#390
1aaaaa
b1000010100011110110 aaaac

#391
1aaaab
b1111110111010111 aaaad
b10000100110001 aaaae

#392
0aaaaa
0aaaab

#393
1aaaaa
b1000011000100100111 aaaac

#394
1aaaab
b1111110111001111 aaaad
b10000101110000 aaaae

#395
0aaaaa
0aaaab

#396
1aaaaa
b1000011100101011000 aaaac

#397
1aaaab
b1111110111000110 aaaad
b10000110110000 aaaae

#398
0aaaaa
0aaaab

#399
1aaaaa
b1000100000110001001 aaaac

#400
1aaaab
b1111110110111101 aaaad
b10000111110011 aaaae

#401
0aaaaa
0aaaab

#402
1aaaaa
b1000100100110111010 aaaac

#403
1aaaab
b1111110110110101 aaaad
b10001000110011 aaaae

#404
0aaaaa
0aaaab

#405
1aaaaa
b1000101000111101100 aaaac

#406
1aaaab
b1111110110101011 aaaad
b10001001110110 aaaae

#407
0aaaaa
0aaaab

#408
1aaaaa
b1000101101000011101 aaaac

#409
1aaaab
b1111110110100011 aaaad
b10001010110101 aaaae

#410
0aaaaa
0aaaab

#411
1aaaaa
b1000110001001001110 aaaac

#412
1aaaab
b1111110110011010 aaaad
b10001011110101 aaaae

#413
0aaaaa
0aaaab

#414
1aaaaa
b1000110101001111111 aaaac

#415
1aaaab
b1111110110010001 aaaad
b10001100111000 aaaae

#416
0aaaaa
0aaaab

#417
1aaaaa
b1000111001010110000 aaaac

#418
1aaaab
b1111110110001000 aaaad
b10001101110111 aaaae

#419
0aaaaa
0aaaab

#420
1aaaaa
b1000111101011100001 aaaac

#421
1aaaab
b1111110101111111 aaaad
b10001110111010 aaaae

#422
0aaaaa
0aaaab

#423
1aaaaa
b1001000001100010010 aaaac

#424
1aaaab
b1111110101110110 aaaad
b10001111111001 aaaae

#425
0aaaaa
0aaaab

#426
1aaaaa
b1001000101101000100 aaaac

#427
1aaaab
b1111110101101100 aaaad
b10010000111101 aaaae

#428
0aaaaa
0aaaab

#429
1aaaaa
b1001001001101110101 aaaac

#430
1aaaab
b1111110101100011 aaaad
b10010001111100 aaaae

#431
0aaaaa
0aaaab

#432
1aaaaa
b1001001101110100110 aaaac

#433
1aaaab
b1111110101011010 aaaad
b10010010111011 aaaae

#434
0aaaaa
0aaaab

#435
1aaaaa
b1001010001111010111 aaaac

#436
1aaaab
b1111110101010000 aaaad
b10010011111111 aaaae

#437
0aaaaa
0aaaab

#438
1aaaaa
b1001010110000001000 aaaac

#439
1aaaab
b1111110101000111 aaaad
b10010100111110 aaaae

#440
0aaaaa
0aaaab

#441
1aaaaa
b1001011010000111001 aaaac

#442
1aaaab
b1111110100111101 aaaad
b10010101111101 aaaae

#443
0aaaaa
0aaaab

#444
1aaaaa
b1001011110001101010 aaaac

#445
1aaaab
b1111110100110011 aaaad
b10010111000000 aaaae

#446
0aaaaa
0aaaab

#447
1aaaaa
b1001100010010011100 aaaac

#448
1aaaab
b1111110100101010 aaaad
b10011000000000 aaaae

#449
0aaaaa
0aaaab

#450
1aaaaa
b1001100110011001101 aaaac

#451
1aaaab
b1111110100100000 aaaad
b10011001000011 aaaae

#452
0aaaaa
0aaaab

#453
1aaaaa
b1001101010011111110 aaaac

#454
1aaaab
b1111110100010110 aaaad
b10011010000010 aaaae

#455
0aaaaa
0aaaab

#456
1aaaaa
b1001101110100101111 aaaac

#457
1aaaab
b1111110100001101 aaaad
b10011011000010 aaaae

#458
0aaaaa
0aaaab

#459
1aaaaa
b1001110010101100000 aaaac

#460
1aaaab
b1111110100000010 aaaad
b10011100000101 aaaae

#461
0aaaaa
0aaaab

#462
1aaaaa
b1001110110110010001 aaaac

#463
1aaaab
b1111110011111001 aaaad
b10011101000100 aaaae

#464
0aaaaa
0aaaab

#465
1aaaaa
b1001111010111000011 aaaac

#466
1aaaab
b1111110011101110 aaaad
b10011110000111 aaaae

#467
0aaaaa
0aaaab

#468
1aaaaa
b1001111110111110100 aaaac

#469
1aaaab
b1111110011100100 aaaad
b10011111000110 aaaae

#470
0aaaaa
0aaaab

#471
1aaaaa
b1010000011000100101 aaaac

#472
1aaaab
b1111110011011010 aaaad
b10100000000110 aaaae

#473
0aaaaa
0aaaab

#474
1aaaaa
b1010000111001010110 aaaac

#475
1aaaab
b1111110011010000 aaaad
b10100001001001 aaaae

#476
0aaaaa
0aaaab

#477
1aaaaa
b1010001011010000111 aaaac

#478
1aaaab
b1111110011000101 aaaad
b10100010001000 aaaae

#479
0aaaaa
0aaaab

#480
1aaaaa
b1010001111010111000 aaaac

#481
1aaaab
b1111110010111011 aaaad
b10100011000111 aaaae

#482
0aaaaa
0aaaab

#483
1aaaaa
b1010010011011101001 aaaac

#484
1aaaab
b1111110010110000 aaaad
b10100100001010 aaaae

#485
0aaaaa
0aaaab

#486
1aaaaa
b1010010111100011011 aaaac

#487
1aaaab
b1111110010100110 aaaad
b10100101001001 aaaae

#488
0aaaaa
0aaaab

#489
1aaaaa
b1010011011101001100 aaaac

#490
1aaaab
b1111110010011011 aaaad
b10100110001101 aaaae

#491
0aaaaa
0aaaab

#492
1aaaaa
b1010011111101111101 aaaac

#493
1aaaab
b1111110010010001 aaaad
b10100111001100 aaaae

#494
0aaaaa
0aaaab

#495
1aaaaa
b1010100011110101110 aaaac

#496
1aaaab
b1111110010000110 aaaad
b10101000001011 aaaae

#497
0aaaaa
0aaaab

#498
1aaaaa
b1010100111111011111 aaaac

#499
1aaaab
b1111110001111011 aaaad
b10101001001110 aaaae

#500
0aaaaa
0aaaab

#501
1aaaaa
b1010101100000010000 aaaac

#502
1aaaab
b1111110001110000 aaaad
b10101010001101 aaaae

#503
0aaaaa
0aaaab

#504
1aaaaa
b1010110000001000010 aaaac

#505
1aaaab
b1111110001100101 aaaad
b10101011010000 aaaae

#506
0aaaaa
0aaaab

#507
1aaaaa
b1010110100001110011 aaaac

#508
1aaaab
b1111110001011010 aaaad
b10101100001111 aaaae

#509
0aaaaa
0aaaab

#510
1aaaaa
b1010111000010100100 aaaac

#511
1aaaab
b1111110001010000 aaaad
b10101101001110 aaaae

#512
0aaaaa
0aaaab

#513
1aaaaa
b1010111100011010101 aaaac

#514
1aaaab
b1111110001000100 aaaad
b10101110010001 aaaae

#515
0aaaaa
0aaaab

#516
1aaaaa
b1011000000100000110 aaaac

#517
1aaaab
b1111110000111001 aaaad
b10101111010000 aaaae

#518
0aaaaa
0aaaab

#519
1aaaaa
b1011000100100110111 aaaac

#520
1aaaab
b1111110000101101 aaaad
b10110000010011 aaaae

#521
0aaaaa
0aaaab

#522
1aaaaa
b1011001000101101000 aaaac

#523
1aaaab
b1111110000100010 aaaad
b10110001010010 aaaae

#524
0aaaaa
0aaaab

#525
1aaaaa
b1011001100110011010 aaaac

#526
1aaaab
b1111110000010111 aaaad
b10110010010001 aaaae

#527
0aaaaa
0aaaab

#528
1aaaaa
b1011010000111001011 aaaac

#529
1aaaab
b1111110000001011 aaaad
b10110011010100 aaaae

#530
0aaaaa
0aaaab

#531
1aaaaa
b1011010100111111100 aaaac

#532
1aaaab
b1111110000000000 aaaad
b10110100010011 aaaae

#533
0aaaaa
0aaaab

#534
1aaaaa
b1011011001000101101 aaaac

#535
1aaaab
b1111101111110101 aaaad
b10110101010010 aaaae

#536
0aaaaa
0aaaab

#537
1aaaaa
b1011011101001011110 aaaac

#538
1aaaab
b1111101111101001 aaaad
b10110110010101 aaaae

#539
0aaaaa
0aaaab

#540
1aaaaa
b1011100001010001111 aaaac

#541
1aaaab
b1111101111011101 aaaad
b10110111010100 aaaae

#542
0aaaaa
0aaaab

#543
1aaaaa
b1011100101011000001 aaaac

#544
1aaaab
b1111101111010001 aaaad
b10111000010111 aaaae

#545
0aaaaa
0aaaab

#546
1aaaaa
b1011101001011110010 aaaac

#547
1aaaab
b1111101111000110 aaaad
b10111001010110 aaaae

#548
0aaaaa
0aaaab

#549
1aaaaa
b1011101101100100011 aaaac

#550
1aaaab
b1111101110111010 aaaad
b10111010010101 aaaae

#551
0aaaaa
0aaaab

#552
1aaaaa
b1011110001101010100 aaaac

#553
1aaaab
b1111101110101110 aaaad
b10111011011000 aaaae

#554
0aaaaa
0aaaab

#555
1aaaaa
b1011110101110000101 aaaac

#556
1aaaab
b1111101110100010 aaaad
b10111100010111 aaaae

#557
0aaaaa
0aaaab

#558
1aaaaa
b1011111001110110110 aaaac

#559
1aaaab
b1111101110010101 aaaad
b10111101011001 aaaae

#560
0aaaaa
0aaaab

#561
1aaaaa
b1011111101111100111 aaaac

#562
1aaaab
b1111101110001001 aaaad
b10111110011000 aaaae

#563
0aaaaa
0aaaab

#564
1aaaaa
b1100000010000011001 aaaac

#565
1aaaab
b1111101101111101 aaaad
b10111111010111 aaaae

#566
0aaaaa
0aaaab

#567
1aaaaa
b1100000110001001010 aaaac

#568
1aaaab
b1111101101110001 aaaad
b11000000011010 aaaae

#569
0aaaaa
0aaaab

#570
1aaaaa
b1100001010001111011 aaaac

#571
1aaaab
b1111101101100101 aaaad
b11000001011001 aaaae

#572
0aaaaa
0aaaab

#573
1aaaaa
b1100001110010101100 aaaac

#574
1aaaab
b1111101101011001 aaaad
b11000010011000 aaaae

#575
0aaaaa
0aaaab

#576
1aaaaa
b1100010010011011101 aaaac

#577
1aaaab
b1111101101001100 aaaad
b11000011011010 aaaae

#578
0aaaaa
0aaaab

#579
1aaaaa
b1100010110100001110 aaaac

#580
1aaaab
b1111101100111111 aaaad
b11000100011001 aaaae

#581
0aaaaa
0aaaab

#582
1aaaaa
b1100011010100111111 aaaac

#583
1aaaab
b1111101100110010 aaaad
b11000101011100 aaaae

#584
0aaaaa
0aaaab

#585
1aaaaa
b1100011110101110001 aaaac

#586
1aaaab
b1111101100100110 aaaad
b11000110011011 aaaae

#587
0aaaaa
0aaaab

#588
1aaaaa
b1100100010110100010 aaaac

#589
1aaaab
b1111101100011001 aaaad
b11000111011010 aaaae

#590
0aaaaa
0aaaab

#591
1aaaaa
b1100100110111010011 aaaac

#592
1aaaab
b1111101100001100 aaaad
b11001000011100 aaaae

#593
0aaaaa
0aaaab

#594
1aaaaa
b1100101011000000100 aaaac

#595
1aaaab
b1111101100000000 aaaad
b11001001011011 aaaae

#596
0aaaaa
0aaaab

#597
1aaaaa
b1100101111000110101 aaaac

#598
1aaaab
b1111101011110010 aaaad
b11001010011110 aaaae

#599
0aaaaa
0aaaab

#600
1aaaaa
b1100110011001100110 aaaac

#601
1aaaab
b1111101011100110 aaaad
b11001011011100 aaaae

#602
0aaaaa
0aaaab

#603
1aaaaa
b1100110111010011000 aaaac

#604
1aaaab
b1111101011011001 aaaad
b11001100011011 aaaae

#605
0aaaaa
0aaaab

#606
1aaaaa
b1100111011011001001 aaaac

#607
1aaaab
b1111101011001011 aaaad
b11001101011101 aaaae

#608
0aaaaa
0aaaab

#609
1aaaaa
b1100111111011111010 aaaac

