ue3-7/trace.vcd
$date
     May 27, 2020       17:45:35
$end

$version
 SystemC 2.3.3-Accellera --- May  1 2020 08:27:28
$end

$timescale
     1 ps
$end

$scope module SystemC $end
$scope module cordicCc $end
$var wire    1  aaaaa  iStart       $end
$var wire    1  aaaab  oRdy       $end
$var wire   22  aaaac  iPhi [21:0]  $end
$var wire   16  aaaad  oX [15:0]  $end
$var wire   16  aaaae  oY [15:0]  $end
$upscope $end
$upscope $end
$enddefinitions  $end

$comment
All initial values are dumped below at time 0 sec = 0 timescale units.
$end

$dumpvars
0aaaaa
0aaaab
b0 aaaac
b0 aaaad
b0 aaaae
$end

#1
1aaaab

#128001
1aaaaa

#130001
0aaaab

#280001
1aaaab
b1111111111111111 aaaad

#280002
0aaaaa

#283001
1aaaaa
b110011001100110 aaaac

#290001
0aaaab

#440001
1aaaab
b1111111111111010 aaaad
b1100110010 aaaae

#440002
0aaaaa

#443001
1aaaaa
b1100110011001100 aaaac

#450001
0aaaab

#600001
1aaaab
b1111111111101010 aaaad
b11001100101 aaaae

#600002
0aaaaa

#603001
1aaaaa
b10011001100110011 aaaac

#610001
0aaaab

#760001
1aaaab
b1111111111010001 aaaad
b100110011000 aaaae

#760002
0aaaaa

#763001
1aaaaa
b11001100110011001 aaaac

#770001
0aaaab

#920001
1aaaab
b1111111110101101 aaaad
b110011001011 aaaae

#920002
0aaaaa

#923001
1aaaaa
b100000000000000000 aaaac

#930001
0aaaab

#1080001
1aaaab
b1111111101111111 aaaad
b111111111110 aaaae

#1080002
0aaaaa

#1083001
1aaaaa
b100110011001100110 aaaac

#1090001
0aaaab

#1240001
1aaaab
b1111111101000111 aaaad
b1001100101100 aaaae

#1240002
0aaaaa

#1243001
1aaaaa
b101100110011001100 aaaac

#1250001
0aaaab

#1400001
1aaaab
b1111111100000100 aaaad
b1011001011101 aaaae

#1400002
0aaaaa

#1403001
1aaaaa
b110011001100110011 aaaac

#1410001
0aaaab

#1560001
1aaaab
b1111111010111000 aaaad
b1100110001101 aaaae

#1560002
0aaaaa

#1563001
1aaaaa
b111001100110011001 aaaac

#1570001
0aaaab

#1720001
1aaaab
b1111111001100001 aaaad
b1110010111101 aaaae

#1720002
0aaaaa

#1723001
1aaaaa
b1000000000000000000 aaaac

#1730001
0aaaab

#1880001
1aaaab
b1111110111111111 aaaad
b1111111101011 aaaae

#1880002
0aaaaa

#1883001
1aaaaa
b1000110011001100110 aaaac

#1890001
0aaaab

#2040001
1aaaab
b1111110110010100 aaaad
b10001100011000 aaaae

#2040002
0aaaaa

#2043001
1aaaaa
b1001100110011001100 aaaac

#2050001
0aaaab

#2200001
1aaaab
b1111110100011111 aaaad
b10011001000010 aaaae

#2200002
0aaaaa

#2203001
1aaaaa
b1010011001100110011 aaaac

#2210001
0aaaab

#2360001
1aaaab
b1111110010100000 aaaad
b10100101101000 aaaae

#2360002
0aaaaa

#2363001
1aaaaa
b1011001100110011001 aaaac

#2370001
0aaaab

#2520001
1aaaab
b1111110000010110 aaaad
b10110010010000 aaaae

#2520002
0aaaaa

#2523001
1aaaaa
b1100000000000000000 aaaac

#2530001
0aaaab

#2680001
1aaaab
b1111101110000010 aaaad
b10111110110111 aaaae

#2680002
0aaaaa

#2683001
1aaaaa
b1100110011001100110 aaaac

#2690001
0aaaab

#2840001
1aaaab
b1111101011100100 aaaad
b11001011011100 aaaae

#2840002
0aaaaa

#2843001
1aaaaa
b1101100110011001100 aaaac

#2850001
0aaaab

#3000001
1aaaab
b1111101000111101 aaaad
b11010111111101 aaaae

#3000002
0aaaaa

#3003001
1aaaaa
b1110011001100110011 aaaac

#3010001
0aaaab

#3160001
1aaaab
b1111100110001011 aaaad
b11100100011110 aaaae

#3160002
0aaaaa

#3163001
1aaaaa
b1111001100110011001 aaaac

#3170001
0aaaab

#3320001
1aaaab
b1111100011001111 aaaad
b11110000111011 aaaae

#3320002
0aaaaa

#3323001
1aaaaa
b10000000000000000000 aaaac

#3330001
0aaaab

#3480001
1aaaab
b1111100000001010 aaaad
b11111101010011 aaaae

#3480002
0aaaaa

#3483001
1aaaaa
b10000110011001100110 aaaac

#3490001
0aaaab

#3640001
1aaaab
b1111011100111010 aaaad
b100001001101101 aaaae

#3640002
0aaaaa

#3643001
1aaaaa
b10001100110011001100 aaaac

#3650001
0aaaab

#3800001
1aaaab
b1111011001100001 aaaad
b100010110000010 aaaae

#3800002
0aaaaa

#3803001
1aaaaa
b10010011001100110011 aaaac

#3810001
0aaaab

#3960001
1aaaab
b1111010101111101 aaaad
b100100010010110 aaaae

#3960002
0aaaaa

#3963001
1aaaaa
b10011001100110011001 aaaac

#3970001
0aaaab

#4120001
1aaaab
b1111010010010000 aaaad
b100101110100111 aaaae

#4120002
0aaaaa

#4123001
1aaaaa
b10011111111111111111 aaaac

#4130001
0aaaab

#4280001
1aaaab
b1111001110011000 aaaad
b100111010110101 aaaae

#4280002
0aaaaa

#4283001
1aaaaa
b10100110011001100110 aaaac

#4290001
0aaaab

#4440001
1aaaab
b1111001010011000 aaaad
b101000110111101 aaaae

#4440002
0aaaaa

#4443001
1aaaaa
b10101100110011001100 aaaac

#4450001
0aaaab

#4600001
1aaaab
b1111000110001110 aaaad
b101010011000101 aaaae

#4600002
0aaaaa

#4603001
1aaaaa
b10110011001100110011 aaaac

#4610001
0aaaab

#4760001
1aaaab
b1111000001111001 aaaad
b101011111001001 aaaae

#4760002
0aaaaa

#4763001
1aaaaa
b10111001100110011001 aaaac

#4770001
0aaaab

#4920001
1aaaab
b1110111101011100 aaaad
b101101011000110 aaaae

#4920002
0aaaaa

#4923001
1aaaaa
b10111111111111111111 aaaac

#4930001
0aaaab

#5080001
1aaaab
b1110111000110101 aaaad
b101110111000011 aaaae

#5080002
0aaaaa

#5083001
1aaaaa
b11000110011001100110 aaaac

#5090001
0aaaab

#5240001
1aaaab
b1110110100000100 aaaad
b110000010111011 aaaae

#5240002
0aaaaa

#5243001
1aaaaa
b11001100110011001100 aaaac

#5250001
0aaaab

#5400001
1aaaab
b1110101111001010 aaaad
b110001110110000 aaaae

#5400002
0aaaaa

#5403001
1aaaaa
b11010011001100110010 aaaac

#5410001
0aaaab

#5560001
1aaaab
b1110101010000110 aaaad
b110011010100001 aaaae

#5560002
0aaaaa

#5563001
1aaaaa
b11011001100110011001 aaaac

#5570001
0aaaab

#5720001
1aaaab
b1110100100111000 aaaad
b110100110001110 aaaae

#5720002
0aaaaa

#5723001
1aaaaa
b11011111111111111111 aaaac

#5730001
0aaaab

#5880001
1aaaab
b1110011111100011 aaaad
b110110001110011 aaaae

#5880002
0aaaaa

#5883001
1aaaaa
b11100110011001100110 aaaac

#5890001
0aaaab

#6040001
1aaaab
b1110011010000010 aaaad
b110111101011010 aaaae

#6040002
0aaaaa

#6043001
1aaaaa
b11101100110011001100 aaaac

#6050001
0aaaab

#6200001
1aaaab
b1110010100011011 aaaad
b111001000110111 aaaae

#6200002
0aaaaa

#6203001
1aaaaa
b11110011001100110010 aaaac

#6210001
0aaaab

#6360001
1aaaab
b1110001110101000 aaaad
b111010100010011 aaaae

#6360002
0aaaaa

#6363001
1aaaaa
b11111001100110011001 aaaac

#6370001
0aaaab

#6520001
1aaaab
b1110001000101101 aaaad
b111011111101001 aaaae

#6520002
0aaaaa

#6523001
1aaaaa
b11111111111111111111 aaaac

#6530001
0aaaab

#6680001
1aaaab
b1110000010101000 aaaad
b111101010111011 aaaae

#6680002
0aaaaa

#6683001
1aaaaa
b100000110011001100110 aaaac

#6690001
0aaaab

#6840001
1aaaab
b1101111100011011 aaaad
b111110110000111 aaaae

#6840002
0aaaaa

#6843001
1aaaaa
b100001100110011001100 aaaac

#6850001
0aaaab

#7000001
1aaaab
b1101110110000100 aaaad
b1000000001001111 aaaae

#7000002
0aaaaa

#7003001
1aaaaa
b100010011001100110010 aaaac

#7010001
0aaaab

#7160001
1aaaab
b1101101111100101 aaaad
b1000001100010010 aaaae

#7160002
0aaaaa

#7163001
1aaaaa
b100011001100110011001 aaaac

#7170001
0aaaab

#7320001
1aaaab
b1101101000111111 aaaad
b1000010111001101 aaaae

#7320002
0aaaaa

#7323001
1aaaaa
b100011111111111111111 aaaac

#7330001
0aaaab

#7480001
1aaaab
b1101100010001110 aaaad
b1000100010000101 aaaae

#7480002
0aaaaa

#7483001
1aaaaa
b100100110011001100101 aaaac

#7490001
0aaaab

#7640001
1aaaab
b1101011011010101 aaaad
b1000101100111000 aaaae

#7640002
0aaaaa

#7643001
1aaaaa
b100101100110011001100 aaaac

#7650001
0aaaab

#7800001
1aaaab
b1101010100010010 aaaad
b1000110111100101 aaaae

#7800002
0aaaaa

#7803001
1aaaaa
b100110011001100110010 aaaac

#7810001
0aaaab

#7960001
1aaaab
b1101001101001000 aaaad
b1001000010001100 aaaae

#7960002
0aaaaa

#7963001
1aaaaa
b100111001100110011001 aaaac

#7970001
0aaaab

#8120001
1aaaab
b1101000101110110 aaaad
b1001001100101011 aaaae

#8120002
0aaaaa

#8123001
1aaaaa
b100111111111111111111 aaaac

#8130001
0aaaab

#8280001
1aaaab
b1100111110011011 aaaad
b1001010111000111 aaaae

#8280002
0aaaaa

#8283001
1aaaaa
b101000110011001100101 aaaac

#8290001
0aaaab

#8440001
1aaaab
b1100110110111000 aaaad
b1001100001011100 aaaae

#8440002
0aaaaa

#8443001
1aaaaa
b101001100110011001100 aaaac

#8450001
0aaaab

#8600001
1aaaab
b1100101111001100 aaaad
b1001101011101100 aaaae

#8600002
0aaaaa

#8603001
1aaaaa
b101010011001100110010 aaaac

#8610001
0aaaab

#8760001
1aaaab
b1100100111010111 aaaad
b1001110101110101 aaaae

#8760002
0aaaaa

#8763001
1aaaaa
b101011001100110011000 aaaac

#8770001
0aaaab

#8920001
1aaaab
b1100011111011011 aaaad
b1001111111111001 aaaae

#8920002
0aaaaa

#8923001
1aaaaa
b101011111111111111111 aaaac

#8930001
0aaaab

#9080001
1aaaab
b1100010111010111 aaaad
b1010001001110110 aaaae

#9080002
0aaaaa

#9083001
1aaaaa
b101100110011001100101 aaaac

#9090001
0aaaab

#9240001
1aaaab
b1100001111001011 aaaad
b1010010011101011 aaaae

#9240002
0aaaaa

#9243001
1aaaaa
b101101100110011001100 aaaac

#9250001
0aaaab

#9400001
1aaaab
b1100000110110111 aaaad
b1010011101011011 aaaae

#9400002
0aaaaa

#9403001
1aaaaa
b101110011001100110010 aaaac

#9410001
0aaaab

#9560001
1aaaab
b1011111110011110 aaaad
b1010100111000001 aaaae

#9560002
0aaaaa

#9563001
1aaaaa
b101111001100110011000 aaaac

#9570001
0aaaab

#9720001
1aaaab
b1011110101111010 aaaad
b1010110000100100 aaaae

#9720002
0aaaaa

#9723001
1aaaaa
b101111111111111111111 aaaac

#9730001
0aaaab

#9880001
1aaaab
b1011101101001111 aaaad
b1010111001111111 aaaae

#9880002
0aaaaa

#9883001
1aaaaa
b110000110011001100101 aaaac

#9890001
0aaaab

#10040001
1aaaab
b1011100100011101 aaaad
b1011000011010011 aaaae

#10040002
0aaaaa

#10043001
1aaaaa
b110001100110011001011 aaaac

#10050001
0aaaab

#10200001
1aaaab
b1011011011100011 aaaad
b1011001100100000 aaaae

#10200002
0aaaaa

#10203001
1aaaaa
b110010011001100110010 aaaac

#10210001
0aaaab

#10360001
1aaaab
b1011010010100011 aaaad
b1011010101100101 aaaae

#10360002
0aaaaa

#10363001
1aaaaa
b110011001100110011000 aaaac

#10370001
0aaaab

#10520001
1aaaab
b1011001001011011 aaaad
b1011011110100011 aaaae

#10520002
0aaaaa

#10523001
1aaaaa
b110011111111111111111 aaaac

#10530001
0aaaab

#10680001
1aaaab
b1011000000001011 aaaad
b1011100111011011 aaaae

#10680002
0aaaaa

#10683001
1aaaaa
b110100110011001100101 aaaac

#10690001
0aaaab

#10840001
1aaaab
b1010110110110101 aaaad
b1011110000001011 aaaae

#10840002
0aaaaa

#10843001
1aaaaa
b110101100110011001011 aaaac

#10850001
0aaaab

#11000001
1aaaab
b1010101101010111 aaaad
b1011111000110011 aaaae

#11000002
0aaaaa

#11003001
1aaaaa
b110110011001100110010 aaaac

#11010001
0aaaab

#11160001
1aaaab
b1010100011110010 aaaad
b1100000001010100 aaaae

#11160002
0aaaaa

#11163001
1aaaaa
b110111001100110011000 aaaac

#11170001
0aaaab

#11320001
1aaaab
b1010011010001010 aaaad
b1100001001101011 aaaae

#11320002
0aaaaa

#11323001
1aaaaa
b110111111111111111110 aaaac

#11330001
0aaaab

#11480001
1aaaab
b1010010000011000 aaaad
b1100010001111101 aaaae

#11480002
0aaaaa

#11483001
1aaaaa
b111000110011001100101 aaaac

#11490001
0aaaab

#11640001
1aaaab
b1010000110100000 aaaad
b1100011010000101 aaaae

#11640002
0aaaaa

#11643001
1aaaaa
b111001100110011001011 aaaac

#11650001
0aaaab

#11800001
1aaaab
b1001111100100001 aaaad
b1100100010000111 aaaae

#11800002
0aaaaa

#11803001
1aaaaa
b111010011001100110010 aaaac

#11810001
0aaaab

#11960001
1aaaab
b1001110010011100 aaaad
b1100101010000001 aaaae

#11960002
0aaaaa

#11963001
1aaaaa
b111011001100110011000 aaaac

#11970001
0aaaab

#12120001
1aaaab
b1001101000010000 aaaad
b1100110001110010 aaaae

#12120002
0aaaaa

#12123001
1aaaaa
b111011111111111111110 aaaac

#12130001
0aaaab

#12280001
1aaaab
b1001011110000001 aaaad
b1100111001011001 aaaae

#12280002
0aaaaa

#12283001
1aaaaa
b111100110011001100101 aaaac

#12290001
0aaaab

#12440001
1aaaab
b1001010011100111 aaaad
b1101000000111100 aaaae

#12440002
0aaaaa

#12443001
1aaaaa
b111101100110011001011 aaaac

#12450001
0aaaab

#12600001
1aaaab
b1001001001001100 aaaad
b1101001000010011 aaaae

#12600002
0aaaaa

#12603001
1aaaaa
b111110011001100110001 aaaac

#12610001
0aaaab

#12760001
1aaaab
b1000111110101000 aaaad
b1101001111100011 aaaae

#12760002
0aaaaa

#12763001
1aaaaa
b111111001100110011000 aaaac

#12770001
0aaaab

#12920001
1aaaab
b1000110011111111 aaaad
b1101010110101011 aaaae

#12920002
0aaaaa

#12923001
1aaaaa
b111111111111111111110 aaaac

#12930001
0aaaab

#13080001
1aaaab
b1000101001010000 aaaad
b1101011101101010 aaaae

#13080002
0aaaaa

#13083001
1aaaaa
b1000000110011001100101 aaaac

#13090001
0aaaab

#13240001
1aaaab
b1000011110011011 aaaad
b1101100100100000 aaaae

#13240002
0aaaaa

#13243001
1aaaaa
b1000001100110011001011 aaaac

#13250001
0aaaab

#13400001
1aaaab
b1000010011100001 aaaad
b1101101011001111 aaaae

#13400002
0aaaaa

#13403001
1aaaaa
b1000010011001100110010 aaaac

#13410001
0aaaab

#13560001
1aaaab
b1000001000100101 aaaad
b1101110001110010 aaaae

#13560002
0aaaaa

#13563001
1aaaaa
b1000011001100110011000 aaaac

#13570001
0aaaab

#13720001
1aaaab
b111111101100000 aaaad
b1101111000001110 aaaae

#13720002
0aaaaa

#13723001
1aaaaa
b1000011111111111111111 aaaac

#13730001
0aaaab

#13880001
1aaaab
b111110010010111 aaaad
b1101111110100010 aaaae

#13880002
0aaaaa

#13883001
1aaaaa
b1000100110011001100101 aaaac

#13890001
0aaaab

#14040001
1aaaab
b111100111001001 aaaad
b1110000100101100 aaaae

#14040002
0aaaaa

#14043001
1aaaaa
b1000101100110011001100 aaaac

#14050001
0aaaab

#14200001
1aaaab
b111011011110101 aaaad
b1110001010101101 aaaae

#14200002
0aaaaa

#14203001
1aaaaa
b1000110011001100110010 aaaac

#14210001
0aaaab

#14360001
1aaaab
b111010000011101 aaaad
b1110010000100110 aaaae

#14360002
0aaaaa

#14363001
1aaaaa
b1000111001100110011001 aaaac

#14370001
0aaaab

#14520001
1aaaab
b111000101000100 aaaad
b1110010110010011 aaaae

#14520002
0aaaaa

#14523001
1aaaaa
b1000111111111111111111 aaaac

#14530001
0aaaab

#14680001
1aaaab
b110111001100010 aaaad
b1110011011111001 aaaae

#14680002
0aaaaa

#14683001
1aaaaa
b1001000110011001100110 aaaac

#14690001
0aaaab

#14840001
1aaaab
b110101101111101 aaaad
b1110100001010110 aaaae

#14840002
0aaaaa

#14843001
1aaaaa
b1001001100110011001100 aaaac

#14850001
0aaaab

#15000001
1aaaab
b110100010010011 aaaad
b1110100110101010 aaaae

#15000002
0aaaaa

#15003001
1aaaaa
b1001010011001100110011 aaaac

#15010001
0aaaab

#15160001
1aaaab
b110010110100100 aaaad
b1110101011110100 aaaae

#15160002
0aaaaa

#15163001
1aaaaa
b1001011001100110011001 aaaac

#15170001
0aaaab

#15320001
1aaaab
b110001010110010 aaaad
b1110110000110100 aaaae

#15320002
0aaaaa

#15323001
1aaaaa
b1001100000000000000000 aaaac

#15330001
0aaaab

#15480001
1aaaab
b101111110111011 aaaad
b1110110101101100 aaaae

#15480002
0aaaaa

#15483001
1aaaaa
b1001100110011001100110 aaaac

#15490001
0aaaab

#15640001
1aaaab
b101110011000010 aaaad
b1110111010011010 aaaae

#15640002
0aaaaa

#15643001
1aaaaa
b1001101100110011001101 aaaac

#15650001
0aaaab

#15800001
1aaaab
b101100111000100 aaaad
b1110111110111110 aaaae

#15800002
0aaaaa

#15803001
1aaaaa
b1001110011001100110011 aaaac

#15810001
0aaaab

#15960001
1aaaab
b101011011000110 aaaad
b1111000011010111 aaaae

#15960002
0aaaaa

#15963001
1aaaaa
b1001111001100110011010 aaaac

#15970001
0aaaab

#16120001
1aaaab
b101001111000000 aaaad
b1111000111101000 aaaae

#16120002
0aaaaa

#16123001
1aaaaa
b1010000000000000000000 aaaac

#16130001
0aaaab

#16280001
1aaaab
b101000010111001 aaaad
b1111001011101111 aaaae

#16280002
0aaaaa

#16283001
1aaaaa
b1010000110011001100111 aaaac

#16290001
0aaaab

#16440001
1aaaab
b100110110101101 aaaad
b1111001111101101 aaaae

#16440002
0aaaaa

#16443001
1aaaaa
b1010001100110011001101 aaaac

#16450001
0aaaab

#16600001
1aaaab
b100101010011111 aaaad
b1111010011100001 aaaae

#16600002
0aaaaa

#16603001
1aaaaa
b1010010011001100110100 aaaac

#16610001
0aaaab

#16760001
1aaaab
b100011110001101 aaaad
b1111010111001011 aaaae

#16760002
0aaaaa

#16763001
1aaaaa
b1010011001100110011010 aaaac

#16770001
0aaaab

#16920001
1aaaab
b100010001111000 aaaad
b1111011010101011 aaaae

#16920002
0aaaaa

#16923001
1aaaaa
b1010100000000000000001 aaaac

#16930001
0aaaab

#17080001
1aaaab
b100000101100010 aaaad
b1111011110000001 aaaae

#17080002
0aaaaa

#17083001
1aaaaa
b1010100110011001100111 aaaac

#17090001
0aaaab

#17240001
1aaaab
b11111001001100 aaaad
b1111100001001101 aaaae

#17240002
0aaaaa

#17243001
1aaaaa
b1010101100110011001110 aaaac

#17250001
0aaaab

#17400001
1aaaab
b11101100101111 aaaad
b1111100100010000 aaaae

#17400002
0aaaaa

#17403001
1aaaaa
b1010110011001100110100 aaaac

#17410001
0aaaab

#17560001
1aaaab
b11100000010000 aaaad
b1111100111001000 aaaae

#17560002
0aaaaa

#17563001
1aaaaa
b1010111001100110011011 aaaac

#17570001
0aaaab

#17720001
1aaaab
b11010011101111 aaaad
b1111101001110110 aaaae

#17720002
0aaaaa

#17723001
1aaaaa
b1011000000000000000001 aaaac

#17730001
0aaaab

#17880001
1aaaab
b11000111001101 aaaad
b1111101100011011 aaaae

#17880002
0aaaaa

#17883001
1aaaaa
b1011000110011001101000 aaaac

#17890001
0aaaab

#18040001
1aaaab
b10111010101000 aaaad
b1111101110110101 aaaae

#18040002
0aaaaa

#18043001
1aaaaa
b1011001100110011001110 aaaac

#18050001
0aaaab

#18200001
1aaaab
b10101110000000 aaaad
b1111110001000110 aaaae

#18200002
0aaaaa

#18203001
1aaaaa
b1011010011001100110101 aaaac

#18210001
0aaaab

#18360001
1aaaab
b10100001011011 aaaad
b1111110011001011 aaaae

#18360002
0aaaaa

#18363001
1aaaaa
b1011011001100110011011 aaaac

#18370001
0aaaab

#18520001
1aaaab
b10010100110001 aaaad
b1111110101001000 aaaae

#18520002
0aaaaa

#18523001
1aaaaa
b1011100000000000000010 aaaac

#18530001
0aaaab

#18680001
1aaaab
b10001000000110 aaaad
b1111110110111010 aaaae

#18680002
0aaaaa

#18683001
1aaaaa
b1011100110011001101000 aaaac

#18690001
0aaaab

#18840001
1aaaab
b1111011011001 aaaad
b1111111000100001 aaaae

#18840002
0aaaaa

#18843001
1aaaaa
b1011101100110011001111 aaaac

#18850001
0aaaab

#19000001
1aaaab
b1101110101010 aaaad
b1111111001111111 aaaae

#19000002
0aaaaa

#19003001
1aaaaa
b1011110011001100110101 aaaac

#19010001
0aaaab

#19160001
1aaaab
b1100001111011 aaaad
b1111111011010011 aaaae

#19160002
0aaaaa

#19163001
1aaaaa
b1011111001100110011100 aaaac

#19170001
0aaaab

#19320001
1aaaab
b1010101001010 aaaad
b1111111100011100 aaaae

#19320002
0aaaaa

#19323001
1aaaaa
b1100000000000000000010 aaaac

#19330001
0aaaab

#19480001
1aaaab
b1001000011101 aaaad
b1111111101011011 aaaae

#19480002
0aaaaa

#19483001
1aaaaa
b1100000110011001101001 aaaac

#19490001
0aaaab

#19640001
1aaaab
b111011101010 aaaad
b1111111110010000 aaaae

#19640002
0aaaaa

#19643001
1aaaaa
b1100001100110011001111 aaaac

#19650001
0aaaab

#19800001
1aaaab
b101110111000 aaaad
b1111111110111010 aaaae

#19800002
0aaaaa

#19803001
1aaaaa
b1100010011001100110110 aaaac

#19810001
0aaaab

#19960001
1aaaab
b100010000100 aaaad
b1111111111011011 aaaae

#19960002
0aaaaa

#19963001
1aaaaa
b1100011001100110011100 aaaac

#19970001
0aaaab

#20120001
1aaaab
b10101010001 aaaad
b1111111111110001 aaaae

#20120002
0aaaaa

#20123001
1aaaaa
b1100100000000000000011 aaaac

#20130001
0aaaab

#20280001
1aaaab
b1000011110 aaaad
b1111111111111101 aaaae

#20280002
0aaaaa

#20283001
1aaaaa
b1100100010000110000011 aaaac

#20290001
0aaaab

#20440001
1aaaab
b100010010 aaaad
b1111111111111110 aaaae

#20440002
0aaaaa

#20443001
1aaaaa
b1100011011101100011101 aaaac

#20450001
0aaaab

#20600001
1aaaab
b10001000101 aaaad
b1111111111110110 aaaae

#20600002
0aaaaa

#20603001
1aaaaa
b1100010101010010110110 aaaac

#20610001
0aaaab

#20760001
1aaaab
b11101111001 aaaad
b1111111111100011 aaaae

#20760002
0aaaaa

#20763001
1aaaaa
b1100001110111001010000 aaaac

#20770001
0aaaab

#20920001
1aaaab
b101010101100 aaaad
b1111111111000110 aaaae

#20920002
0aaaaa

#20923001
1aaaaa
b1100001000011111101001 aaaac

#20930001
0aaaab

#21080001
1aaaab
b110111011111 aaaad
b1111111110011111 aaaae

#21080002
0aaaaa

#21083001
1aaaaa
b1100000010000110000011 aaaac

#21090001
0aaaab

#21240001
1aaaab
b1000100010001 aaaad
b1111111101101101 aaaae

#21240002
0aaaaa

#21243001
1aaaaa
b1011111011101100011100 aaaac

#21250001
0aaaab

#21400001
1aaaab
b1010000111111 aaaad
b1111111100110010 aaaae

#21400002
0aaaaa

#21403001
1aaaaa
b1011110101010010110110 aaaac

#21410001
0aaaab

#21560001
1aaaab
b1011101110000 aaaad
b1111111011101100 aaaae

#21560002
0aaaaa

#21563001
1aaaaa
b1011101110111001001111 aaaac

#21570001
0aaaab

#21720001
1aaaab
b1101010100000 aaaad
b1111111010011100 aaaae

#21720002
0aaaaa

#21723001
1aaaaa
b1011101000011111101001 aaaac

#21730001
0aaaab

#21880001
1aaaab
b1110111001111 aaaad
b1111111001000001 aaaae

#21880002
0aaaaa

#21883001
1aaaaa
b1011100010000110000010 aaaac

#21890001
0aaaab

#22040001
1aaaab
b10000011111101 aaaad
b1111110111011101 aaaae

#22040002
0aaaaa

#22043001
1aaaaa
b1011011011101100011100 aaaac

#22050001
0aaaab

#22200001
1aaaab
b10010000101000 aaaad
b1111110101101110 aaaae

#22200002
0aaaaa

#22203001
1aaaaa
b1011010101010010110101 aaaac

#22210001
0aaaab

#22360001
1aaaab
b10011101010011 aaaad
b1111110011110101 aaaae

#22360002
0aaaaa

#22363001
1aaaaa
b1011001110111001001111 aaaac

#22370001
0aaaab

#22520001
1aaaab
b10101001111001 aaaad
b1111110001110011 aaaae

#22520002
0aaaaa

#22523001
1aaaaa
b1011001000011111101000 aaaac

#22530001
0aaaab

#22680001
1aaaab
b10110110100000 aaaad
b1111101111100110 aaaae

#22680002
0aaaaa

#22683001
1aaaaa
b1011000010000110000010 aaaac

#22690001
0aaaab

#22840001
1aaaab
b11000011000110 aaaad
b1111101101001111 aaaae

#22840002
0aaaaa

#22843001
1aaaaa
b1010111011101100011011 aaaac

#22850001
0aaaab

#23000001
1aaaab
b11001111101001 aaaad
b1111101010101101 aaaae

#23000002
0aaaaa

#23003001
1aaaaa
b1010110101010010110101 aaaac

#23010001
0aaaab

#23160001
1aaaab
b11011100001011 aaaad
b1111101000000010 aaaae

#23160002
0aaaaa

#23163001
1aaaaa
b1010101110111001001110 aaaac

#23170001
0aaaab

#23320001
1aaaab
b11101000101010 aaaad
b1111100101001101 aaaae

#23320002
0aaaaa

#23323001
1aaaaa
b1010101000011111101000 aaaac

#23330001
0aaaab

#23480001
1aaaab
b11110101000111 aaaad
b1111100010001101 aaaae

#23480002
0aaaaa

#23483001
1aaaaa
b1010100010000110000001 aaaac

#23490001
0aaaab

#23640001
1aaaab
b100000001011111 aaaad
b1111011111000101 aaaae

#23640002
0aaaaa

#23643001
1aaaaa
b1010011011101100011011 aaaac

#23650001
0aaaab

#23800001
1aaaab
b100001101110110 aaaad
b1111011011110010 aaaae

#23800002
0aaaaa

#23803001
1aaaaa
b1010010101010010110100 aaaac

#23810001
0aaaab

#23960001
1aaaab
b100011010001011 aaaad
b1111011000010101 aaaae

#23960002
0aaaaa

#23963001
1aaaaa
b1010001110111001001110 aaaac

#23970001
0aaaab

#24120001
1aaaab
b100100110011110 aaaad
b1111010100101110 aaaae

#24120002
0aaaaa

#24123001
1aaaaa
b1010001000011111100111 aaaac

#24130001
0aaaab

#24280001
1aaaab
b100110010101110 aaaad
b1111010000111110 aaaae

#24280002
0aaaaa

#24283001
1aaaaa
b1010000010000110000001 aaaac

#24290001
0aaaab

#24440001
1aaaab
b100111110111011 aaaad
b1111001101000011 aaaae

#24440002
0aaaaa

#24443001
1aaaaa
b1001111011101100011010 aaaac

#24450001
0aaaab

#24600001
1aaaab
b101001011000011 aaaad
b1111001001000000 aaaae

#24600002
0aaaaa

#24603001
1aaaaa
b1001110101010010110100 aaaac

#24610001
0aaaab

#24760001
1aaaab
b101010111001001 aaaad
b1111000100110001 aaaae

#24760002
0aaaaa

#24763001
1aaaaa
b1001101110111001001101 aaaac

#24770001
0aaaab

#24920001
1aaaab
b101100011001000 aaaad
b1111000000011011 aaaae

#24920002
0aaaaa

#24923001
1aaaaa
b1001101000011111100111 aaaac

#24930001
0aaaab

#25080001
1aaaab
b101101111001000 aaaad
b1110111011111010 aaaae

#25080002
0aaaaa

#25083001
1aaaaa
b1001100010000110000000 aaaac

#25090001
0aaaab

#25240001
1aaaab
b101111011000011 aaaad
b1110110111010000 aaaae

#25240002
0aaaaa

#25243001
1aaaaa
b1001011011101100011010 aaaac

#25250001
0aaaab

#25400001
1aaaab
b110000110111010 aaaad
b1110110010011100 aaaae

#25400002
0aaaaa

#25403001
1aaaaa
b1001010101010010110011 aaaac

#25410001
0aaaab

#25560001
1aaaab
b110010010101110 aaaad
b1110101101011110 aaaae

#25560002
0aaaaa

#25563001
1aaaaa
b1001001110111001001101 aaaac

#25570001
0aaaab

#25720001
1aaaab
b110011110011101 aaaad
b1110101000010111 aaaae

#25720002
0aaaaa

#25723001
1aaaaa
b1001001000011111100110 aaaac

#25730001
0aaaab

#25880001
1aaaab
b110101010001001 aaaad
b1110100011000110 aaaae

#25880002
0aaaaa

#25883001
1aaaaa
b1001000010000110000000 aaaac

#25890001
0aaaab

#26040001
1aaaab
b110110101101101 aaaad
b1110011101101110 aaaae

#26040002
0aaaaa

#26043001
1aaaaa
b1000111011101100011001 aaaac

#26050001
0aaaab

#26200001
1aaaab
b111000001010011 aaaad
b1110011000001001 aaaae

#26200002
0aaaaa

#26203001
1aaaaa
b1000110101010010110011 aaaac

#26210001
0aaaab

#26360001
1aaaab
b111001100101110 aaaad
b1110010010011111 aaaae

#26360002
0aaaaa

#26363001
1aaaaa
b1000101110111001001100 aaaac

#26370001
0aaaab

#26520001
1aaaab
b111011000001000 aaaad
b1110001100101001 aaaae

#26520002
0aaaaa

#26523001
1aaaaa
b1000101000011111100110 aaaac

#26530001
0aaaab

#26680001
1aaaab
b111100011011101 aaaad
b1110000110101011 aaaae

#26680002
0aaaaa

#26683001
1aaaaa
b1000100010000101111111 aaaac

#26690001
0aaaab

#26840001
1aaaab
b111101110101101 aaaad
b1110000000100011 aaaae

#26840002
0aaaaa

#26843001
1aaaaa
b1000011011101100011001 aaaac

#26850001
0aaaab

#27000001
1aaaab
b111111001111000 aaaad
b1101111010010011 aaaae

#27000002
0aaaaa

#27003001
1aaaaa
b1000010101010010110010 aaaac

#27010001
0aaaab

#27160001
1aaaab
b1000000100111110 aaaad
b1101110011111010 aaaae

#27160002
0aaaaa

#27163001
1aaaaa
b1000001110111001001100 aaaac

#27170001
0aaaab

#27320001
1aaaab
b1000001111111100 aaaad
b1101101101011001 aaaae

#27320002
0aaaaa

#27323001
1aaaaa
b1000001000011111100101 aaaac

#27330001
0aaaab

#27480001
1aaaab
b1000011010111000 aaaad
b1101100110101110 aaaae

#27480002
0aaaaa

#27483001
1aaaaa
b1000000010000101111111 aaaac

#27490001
0aaaab

