ue3-7/doc/trace.vcd
$date
     May 07, 2020       15:13:47
$end

$version
 SystemC 2.3.3-Accellera --- May  1 2020 08:27:28
$end

$timescale
     1 ps
$end

$scope module SystemC $end
$scope module cordic $end
$var wire    1  aaaaa  iStart       $end
$var wire    1  aaaab  oRdy       $end
$var wire   22  aaaac  iPhi [21:0]  $end
$var wire   16  aaaad  oX [15:0]  $end
$var wire   16  aaaae  oY [15:0]  $end
$upscope $end
$upscope $end
$enddefinitions  $end

$comment
All initial values are dumped below at time 0 sec = 0 timescale units.
$end

$dumpvars
1aaaaa
1aaaab
b0 aaaac
b0 aaaad
b0 aaaae
$end

#1
0aaaab

#2
1aaaab
b1111111111111111 aaaad

#1000
0aaaaa

#3000
1aaaaa
b110011001100110 aaaac

#3001
0aaaab

#3002
1aaaab
b1111111111111011 aaaad
b1100110011 aaaae

#4000
0aaaaa

#6000
1aaaaa
b1100110011001100 aaaac

#6001
0aaaab

#6002
1aaaab
b1111111111101100 aaaad
b11001100110 aaaae

#7000
0aaaaa

#9000
1aaaaa
b10011001100110011 aaaac

#9001
0aaaab

#9002
1aaaab
b1111111111010010 aaaad
b100110011001 aaaae

#10000
0aaaaa

#12000
1aaaaa
b11001100110011001 aaaac

#12001
0aaaab

#12002
1aaaab
b1111111110101110 aaaad
b110011001100 aaaae

#13000
0aaaaa

#15000
1aaaaa
b100000000000000000 aaaac

#15001
0aaaab

#15002
1aaaab
b1111111110000000 aaaad
b111111111111 aaaae

#16000
0aaaaa

#18000
1aaaaa
b100110011001100110 aaaac

#18001
0aaaab

#18002
1aaaab
b1111111101001000 aaaad
b1001100101101 aaaae

#19000
0aaaaa

#21000
1aaaaa
b101100110011001100 aaaac

#21001
0aaaab

#21002
1aaaab
b1111111100000101 aaaad
b1011001011110 aaaae

#22000
0aaaaa

#24000
1aaaaa
b110011001100110011 aaaac

#24001
0aaaab

#24002
1aaaab
b1111111010111001 aaaad
b1100110001110 aaaae

#25000
0aaaaa

#27000
1aaaaa
b111001100110011001 aaaac

#27001
0aaaab

#27002
1aaaab
b1111111001100010 aaaad
b1110010111101 aaaae

#28000
0aaaaa

#30000
1aaaaa
b1000000000000000000 aaaac

#30001
0aaaab

#30002
1aaaab
b1111111000000001 aaaad
b1111111101100 aaaae

#31000
0aaaaa

#33000
1aaaaa
b1000110011001100110 aaaac

#33001
0aaaab

#33002
1aaaab
b1111110110010101 aaaad
b10001100011001 aaaae

#34000
0aaaaa

#36000
1aaaaa
b1001100110011001100 aaaac

#36001
0aaaab

#36002
1aaaab
b1111110100100000 aaaad
b10011001000011 aaaae

#37000
0aaaaa

#39000
1aaaaa
b1010011001100110011 aaaac

#39001
0aaaab

#39002
1aaaab
b1111110010100001 aaaad
b10100101101001 aaaae

#40000
0aaaaa

#42000
1aaaaa
b1011001100110011001 aaaac

#42001
0aaaab

#42002
1aaaab
b1111110000010111 aaaad
b10110010010001 aaaae

#43000
0aaaaa

#45000
1aaaaa
b1100000000000000000 aaaac

#45001
0aaaab

#45002
1aaaab
b1111101110000011 aaaad
b10111110111000 aaaae

#46000
0aaaaa

#48000
1aaaaa
b1100110011001100110 aaaac

#48001
0aaaab

#48002
1aaaab
b1111101011100110 aaaad
b11001011011100 aaaae

#49000
0aaaaa

#51000
1aaaaa
b1101100110011001100 aaaac

#51001
0aaaab

#51002
1aaaab
b1111101000111110 aaaad
b11010111111110 aaaae

#52000
0aaaaa

#54000
1aaaaa
b1110011001100110011 aaaac

#54001
0aaaab

#54002
1aaaab
b1111100110001100 aaaad
b11100100011110 aaaae

#55000
0aaaaa

#57000
1aaaaa
b1111001100110011001 aaaac

#57001
0aaaab

#57002
1aaaab
b1111100011010000 aaaad
b11110000111100 aaaae

#58000
0aaaaa

#60000
1aaaaa
b10000000000000000000 aaaac

#60001
0aaaab

#60002
1aaaab
b1111100000001011 aaaad
b11111101010100 aaaae

#61000
0aaaaa

#63000
1aaaaa
b10000110011001100110 aaaac

#63001
0aaaab

#63002
1aaaab
b1111011100111011 aaaad
b100001001101101 aaaae

#64000
0aaaaa

#66000
1aaaaa
b10001100110011001100 aaaac

#66001
0aaaab

#66002
1aaaab
b1111011001100010 aaaad
b100010110000011 aaaae

#67000
0aaaaa

#69000
1aaaaa
b10010011001100110011 aaaac

#69001
0aaaab

#69002
1aaaab
b1111010101111110 aaaad
b100100010010111 aaaae

#70000
0aaaaa

#72000
1aaaaa
b10011001100110011001 aaaac

#72001
0aaaab

#72002
1aaaab
b1111010010010001 aaaad
b100101110100111 aaaae

#73000
0aaaaa

#75000
1aaaaa
b10011111111111111111 aaaac

#75001
0aaaab

#75002
1aaaab
b1111001110011010 aaaad
b100111010110101 aaaae

#76000
0aaaaa

#78000
1aaaaa
b10100110011001100110 aaaac

#78001
0aaaab

#78002
1aaaab
b1111001010011001 aaaad
b101000110111111 aaaae

#79000
0aaaaa

#81000
1aaaaa
b10101100110011001100 aaaac

#81001
0aaaab

#81002
1aaaab
b1111000110001110 aaaad
b101010011000110 aaaae

#82000
0aaaaa

#84000
1aaaaa
b10110011001100110011 aaaac

#84001
0aaaab

#84002
1aaaab
b1111000001111010 aaaad
b101011111001010 aaaae

#85000
0aaaaa

#87000
1aaaaa
b10111001100110011001 aaaac

#87001
0aaaab

#87002
1aaaab
b1110111101011110 aaaad
b101101011000111 aaaae

#88000
0aaaaa

#90000
1aaaaa
b10111111111111111111 aaaac

#90001
0aaaab

#90002
1aaaab
b1110111000110110 aaaad
b101110111000011 aaaae

#91000
0aaaaa

#93000
1aaaaa
b11000110011001100110 aaaac

#93001
0aaaab

#93002
1aaaab
b1110110100000101 aaaad
b110000010111011 aaaae

#94000
0aaaaa

#96000
1aaaaa
b11001100110011001100 aaaac

#96001
0aaaab

#96002
1aaaab
b1110101111001011 aaaad
b110001110110001 aaaae

#97000
0aaaaa

#99000
1aaaaa
b11010011001100110010 aaaac

#99001
0aaaab

#99002
1aaaab
b1110101010000111 aaaad
b110011010100010 aaaae

#100000
0aaaaa

#102000
1aaaaa
b11011001100110011001 aaaac

#102001
0aaaab

#102002
1aaaab
b1110100100111001 aaaad
b110100110001111 aaaae

#103000
0aaaaa

#105000
1aaaaa
b11011111111111111111 aaaac

#105001
0aaaab

#105002
1aaaab
b1110011111100100 aaaad
b110110001110100 aaaae

#106000
0aaaaa

#108000
1aaaaa
b11100110011001100110 aaaac

#108001
0aaaab

#108002
1aaaab
b1110011010000011 aaaad
b110111101011011 aaaae

#109000
0aaaaa

#111000
1aaaaa
b11101100110011001100 aaaac

#111001
0aaaab

#111002
1aaaab
b1110010100011011 aaaad
b111001000111000 aaaae

#112000
0aaaaa

#114000
1aaaaa
b11110011001100110010 aaaac

#114001
0aaaab

#114002
1aaaab
b1110001110101001 aaaad
b111010100010011 aaaae

#115000
0aaaaa

#117000
1aaaaa
b11111001100110011001 aaaac

#117001
0aaaab

#117002
1aaaab
b1110001000101110 aaaad
b111011111101010 aaaae

#118000
0aaaaa

#120000
1aaaaa
b11111111111111111111 aaaac

#120001
0aaaab

#120002
1aaaab
b1110000010101001 aaaad
b111101010111100 aaaae

#121000
0aaaaa

#123000
1aaaaa
b100000110011001100110 aaaac

#123001
0aaaab

#123002
1aaaab
b1101111100011100 aaaad
b111110110001000 aaaae

#124000
0aaaaa

#126000
1aaaaa
b100001100110011001100 aaaac

#126001
0aaaab

#126002
1aaaab
b1101110110000101 aaaad
b1000000001010000 aaaae

#127000
0aaaaa

#129000
1aaaaa
b100010011001100110010 aaaac

#129001
0aaaab

#129002
1aaaab
b1101101111100110 aaaad
b1000001100010011 aaaae

#130000
0aaaaa

#132000
1aaaaa
b100011001100110011001 aaaac

#132001
0aaaab

#132002
1aaaab
b1101101001000000 aaaad
b1000010111001110 aaaae

#133000
0aaaaa

#135000
1aaaaa
b100011111111111111111 aaaac

#135001
0aaaab

#135002
1aaaab
b1101100010001111 aaaad
b1000100010000110 aaaae

#136000
0aaaaa

#138000
1aaaaa
b100100110011001100101 aaaac

#138001
0aaaab

#138002
1aaaab
b1101011011010101 aaaad
b1000101100111001 aaaae

#139000
0aaaaa

#141000
1aaaaa
b100101100110011001100 aaaac

#141001
0aaaab

#141002
1aaaab
b1101010100010011 aaaad
b1000110111100110 aaaae

#142000
0aaaaa

#144000
1aaaaa
b100110011001100110010 aaaac

#144001
0aaaab

#144002
1aaaab
b1101001101001001 aaaad
b1001000010001101 aaaae

#145000
0aaaaa

#147000
1aaaaa
b100111001100110011001 aaaac

#147001
0aaaab

#147002
1aaaab
b1101000101111000 aaaad
b1001001100101100 aaaae

#148000
0aaaaa

#150000
1aaaaa
b100111111111111111111 aaaac

#150001
0aaaab

#150002
1aaaab
b1100111110011100 aaaad
b1001010111001000 aaaae

#151000
0aaaaa

#153000
1aaaaa
b101000110011001100101 aaaac

#153001
0aaaab

#153002
1aaaab
b1100110110111001 aaaad
b1001100001011101 aaaae

#154000
0aaaaa

#156000
1aaaaa
b101001100110011001100 aaaac

#156001
0aaaab

#156002
1aaaab
b1100101111001101 aaaad
b1001101011101101 aaaae

#157000
0aaaaa

#159000
1aaaaa
b101010011001100110010 aaaac

#159001
0aaaab

#159002
1aaaab
b1100100111011000 aaaad
b1001110101110110 aaaae

#160000
0aaaaa

#162000
1aaaaa
b101011001100110011000 aaaac

#162001
0aaaab

#162002
1aaaab
b1100011111011100 aaaad
b1001111111111010 aaaae

#163000
0aaaaa

#165000
1aaaaa
b101011111111111111111 aaaac

#165001
0aaaab

#165002
1aaaab
b1100010111011000 aaaad
b1010001001110111 aaaae

#166000
0aaaaa

#168000
1aaaaa
b101100110011001100101 aaaac

#168001
0aaaab

#168002
1aaaab
b1100001111001100 aaaad
b1010010011101100 aaaae

#169000
0aaaaa

#171000
1aaaaa
b101101100110011001100 aaaac

#171001
0aaaab

#171002
1aaaab
b1100000110111000 aaaad
b1010011101011100 aaaae

#172000
0aaaaa

#174000
1aaaaa
b101110011001100110010 aaaac

#174001
0aaaab

#174002
1aaaab
b1011111110011111 aaaad
b1010100111000010 aaaae

#175000
0aaaaa

#177000
1aaaaa
b101111001100110011000 aaaac

#177001
0aaaab

#177002
1aaaab
b1011110101111011 aaaad
b1010110000100101 aaaae

#178000
0aaaaa

#180000
1aaaaa
b101111111111111111111 aaaac

#180001
0aaaab

#180002
1aaaab
b1011101101010000 aaaad
b1010111010000000 aaaae

#181000
0aaaaa

#183000
1aaaaa
b110000110011001100101 aaaac

#183001
0aaaab

#183002
1aaaab
b1011100100011110 aaaad
b1011000011010100 aaaae

#184000
0aaaaa

#186000
1aaaaa
b110001100110011001011 aaaac

#186001
0aaaab

#186002
1aaaab
b1011011011100100 aaaad
b1011001100100001 aaaae

#187000
0aaaaa

#189000
1aaaaa
b110010011001100110010 aaaac

#189001
0aaaab

#189002
1aaaab
b1011010010100100 aaaad
b1011010101100110 aaaae

#190000
0aaaaa

#192000
1aaaaa
b110011001100110011000 aaaac

#192001
0aaaab

#192002
1aaaab
b1011001001011011 aaaad
b1011011110100101 aaaae

#193000
0aaaaa

#195000
1aaaaa
b110011111111111111111 aaaac

#195001
0aaaab

#195002
1aaaab
b1011000000001100 aaaad
b1011100111011100 aaaae

#196000
0aaaaa

#198000
1aaaaa
b110100110011001100101 aaaac

#198001
0aaaab

#198002
1aaaab
b1010110110110110 aaaad
b1011110000001100 aaaae

#199000
0aaaaa

#201000
1aaaaa
b110101100110011001011 aaaac

#201001
0aaaab

#201002
1aaaab
b1010101101011000 aaaad
b1011111000110100 aaaae

#202000
0aaaaa

#204000
1aaaaa
b110110011001100110010 aaaac

#204001
0aaaab

#204002
1aaaab
b1010100011110011 aaaad
b1100000001010101 aaaae

#205000
0aaaaa

#207000
1aaaaa
b110111001100110011000 aaaac

#207001
0aaaab

#207002
1aaaab
b1010011010001011 aaaad
b1100001001101100 aaaae

#208000
0aaaaa

#210000
1aaaaa
b110111111111111111110 aaaac

#210001
0aaaab

#210002
1aaaab
b1010010000011001 aaaad
b1100010001111101 aaaae

#211000
0aaaaa

#213000
1aaaaa
b111000110011001100101 aaaac

#213001
0aaaab

#213002
1aaaab
b1010000110100001 aaaad
b1100011010000110 aaaae

#214000
0aaaaa

#216000
1aaaaa
b111001100110011001011 aaaac

#216001
0aaaab

#216002
1aaaab
b1001111100100010 aaaad
b1100100010001000 aaaae

#217000
0aaaaa

#219000
1aaaaa
b111010011001100110010 aaaac

#219001
0aaaab

#219002
1aaaab
b1001110010011101 aaaad
b1100101010000010 aaaae

#220000
0aaaaa

#222000
1aaaaa
b111011001100110011000 aaaac

#222001
0aaaab

#222002
1aaaab
b1001101000010001 aaaad
b1100110001110011 aaaae

#223000
0aaaaa

#225000
1aaaaa
b111011111111111111110 aaaac

#225001
0aaaab

#225002
1aaaab
b1001011110000010 aaaad
b1100111001011010 aaaae

#226000
0aaaaa

#228000
1aaaaa
b111100110011001100101 aaaac

#228001
0aaaab

#228002
1aaaab
b1001010011101000 aaaad
b1101000000111101 aaaae

#229000
0aaaaa

#231000
1aaaaa
b111101100110011001011 aaaac

#231001
0aaaab

#231002
1aaaab
b1001001001001101 aaaad
b1101001000010011 aaaae

#232000
0aaaaa

#234000
1aaaaa
b111110011001100110001 aaaac

#234001
0aaaab

#234002
1aaaab
b1000111110101001 aaaad
b1101001111100100 aaaae

#235000
0aaaaa

#237000
1aaaaa
b111111001100110011000 aaaac

#237001
0aaaab

#237002
1aaaab
b1000110100000000 aaaad
b1101010110101100 aaaae

#238000
0aaaaa

#240000
1aaaaa
b111111111111111111110 aaaac

#240001
0aaaab

#240002
1aaaab
b1000101001010001 aaaad
b1101011101101011 aaaae

#241000
0aaaaa

#243000
1aaaaa
b1000000110011001100101 aaaac

#243001
0aaaab

#243002
1aaaab
b1000011110011100 aaaad
b1101100100100010 aaaae

#244000
0aaaaa

#246000
1aaaaa
b1000001100110011001011 aaaac

#246001
0aaaab

#246002
1aaaab
b1000010011100010 aaaad
b1101101011010000 aaaae

#247000
0aaaaa

#249000
1aaaaa
b1000010011001100110010 aaaac

#249001
0aaaab

#249002
1aaaab
b1000001000100110 aaaad
b1101110001110011 aaaae

#250000
0aaaaa

#252000
1aaaaa
b1000011001100110011000 aaaac

#252001
0aaaab

#252002
1aaaab
b111111101100001 aaaad
b1101111000001111 aaaae

#253000
0aaaaa

#255000
1aaaaa
b1000011111111111111111 aaaac

#255001
0aaaab

#255002
1aaaab
b111110010011000 aaaad
b1101111110100011 aaaae

#256000
0aaaaa

#258000
1aaaaa
b1000100110011001100101 aaaac

#258001
0aaaab

#258002
1aaaab
b111100111001010 aaaad
b1110000100101101 aaaae

#259000
0aaaaa

#261000
1aaaaa
b1000101100110011001100 aaaac

#261001
0aaaab

#261002
1aaaab
b111011011110110 aaaad
b1110001010101110 aaaae

#262000
0aaaaa

#264000
1aaaaa
b1000110011001100110010 aaaac

#264001
0aaaab

#264002
1aaaab
b111010000011110 aaaad
b1110010000100111 aaaae

#265000
0aaaaa

#267000
1aaaaa
b1000111001100110011001 aaaac

#267001
0aaaab

#267002
1aaaab
b111000101000100 aaaad
b1110010110010100 aaaae

#268000
0aaaaa

#270000
1aaaaa
b1000111111111111111111 aaaac

#270001
0aaaab

#270002
1aaaab
b110111001100011 aaaad
b1110011011111011 aaaae

#271000
0aaaaa

#273000
1aaaaa
b1001000110011001100110 aaaac

#273001
0aaaab

#273002
1aaaab
b110101101111110 aaaad
b1110100001010111 aaaae

#274000
0aaaaa

#276000
1aaaaa
b1001001100110011001100 aaaac

#276001
0aaaab

#276002
1aaaab
b110100010010011 aaaad
b1110100110101011 aaaae

#277000
0aaaaa

#279000
1aaaaa
b1001010011001100110011 aaaac

#279001
0aaaab

#279002
1aaaab
b110010110100101 aaaad
b1110101011110101 aaaae

#280000
0aaaaa

#282000
1aaaaa
b1001011001100110011001 aaaac

#282001
0aaaab

#282002
1aaaab
b110001010110010 aaaad
b1110110000110110 aaaae

#283000
0aaaaa

#285000
1aaaaa
b1001100000000000000000 aaaac

#285001
0aaaab

#285002
1aaaab
b101111110111100 aaaad
b1110110101101101 aaaae

#286000
0aaaaa

#288000
1aaaaa
b1001100110011001100110 aaaac

#288001
0aaaab

#288002
1aaaab
b101110011000010 aaaad
b1110111010011011 aaaae

#289000
0aaaaa

#291000
1aaaaa
b1001101100110011001101 aaaac

#291001
0aaaab

#291002
1aaaab
b101100111000100 aaaad
b1110111110111111 aaaae

#292000
0aaaaa

#294000
1aaaaa
b1001110011001100110011 aaaac

#294001
0aaaab

#294002
1aaaab
b101011011000110 aaaad
b1111000011011000 aaaae

#295000
0aaaaa

#297000
1aaaaa
b1001111001100110011010 aaaac

#297001
0aaaab

#297002
1aaaab
b101001111000001 aaaad
b1111000111101001 aaaae

#298000
0aaaaa

#300000
1aaaaa
b1010000000000000000000 aaaac

#300001
0aaaab

#300002
1aaaab
b101000010111010 aaaad
b1111001011110000 aaaae

#301000
0aaaaa

#303000
1aaaaa
b1010000110011001100111 aaaac

#303001
0aaaab

#303002
1aaaab
b100110110101110 aaaad
b1111001111101110 aaaae

#304000
0aaaaa

#306000
1aaaaa
b1010001100110011001101 aaaac

#306001
0aaaab

#306002
1aaaab
b100101010100000 aaaad
b1111010011100010 aaaae

#307000
0aaaaa

#309000
1aaaaa
b1010010011001100110100 aaaac

#309001
0aaaab

#309002
1aaaab
b100011110001110 aaaad
b1111010111001100 aaaae

#310000
0aaaaa

#312000
1aaaaa
b1010011001100110011010 aaaac

#312001
0aaaab

#312002
1aaaab
b100010001111001 aaaad
b1111011010101100 aaaae

#313000
0aaaaa

#315000
1aaaaa
b1010100000000000000001 aaaac

#315001
0aaaab

#315002
1aaaab
b100000101100011 aaaad
b1111011110000010 aaaae

#316000
0aaaaa

#318000
1aaaaa
b1010100110011001100111 aaaac

#318001
0aaaab

#318002
1aaaab
b11111001001101 aaaad
b1111100001001110 aaaae

#319000
0aaaaa

#321000
1aaaaa
b1010101100110011001110 aaaac

#321001
0aaaab

#321002
1aaaab
b11101100110000 aaaad
b1111100100010000 aaaae

#322000
0aaaaa

#324000
1aaaaa
b1010110011001100110100 aaaac

#324001
0aaaab

#324002
1aaaab
b11100000010001 aaaad
b1111100111001001 aaaae

#325000
0aaaaa

#327000
1aaaaa
b1010111001100110011011 aaaac

#327001
0aaaab

#327002
1aaaab
b11010011110000 aaaad
b1111101001111000 aaaae

#328000
0aaaaa

#330000
1aaaaa
b1011000000000000000001 aaaac

#330001
0aaaab

#330002
1aaaab
b11000111001110 aaaad
b1111101100011100 aaaae

#331000
0aaaaa

#333000
1aaaaa
b1011000110011001101000 aaaac

#333001
0aaaab

#333002
1aaaab
b10111010101000 aaaad
b1111101110110110 aaaae

#334000
0aaaaa

#336000
1aaaaa
b1011001100110011001110 aaaac

#336001
0aaaab

#336002
1aaaab
b10101110000001 aaaad
b1111110001000111 aaaae

#337000
0aaaaa

#339000
1aaaaa
b1011010011001100110101 aaaac

#339001
0aaaab

#339002
1aaaab
b10100001011100 aaaad
b1111110011001100 aaaae

#340000
0aaaaa

#342000
1aaaaa
b1011011001100110011011 aaaac

#342001
0aaaab

#342002
1aaaab
b10010100110010 aaaad
b1111110101001001 aaaae

#343000
0aaaaa

#345000
1aaaaa
b1011100000000000000010 aaaac

#345001
0aaaab

#345002
1aaaab
b10001000000111 aaaad
b1111110110111010 aaaae

#346000
0aaaaa

#348000
1aaaaa
b1011100110011001101000 aaaac

#348001
0aaaab

#348002
1aaaab
b1111011011010 aaaad
b1111111000100010 aaaae

#349000
0aaaaa

#351000
1aaaaa
b1011101100110011001111 aaaac

#351001
0aaaab

#351002
1aaaab
b1101110101011 aaaad
b1111111010000000 aaaae

#352000
0aaaaa

#354000
1aaaaa
b1011110011001100110101 aaaac

#354001
0aaaab

#354002
1aaaab
b1100001111100 aaaad
b1111111011010100 aaaae

#355000
0aaaaa

#357000
1aaaaa
b1011111001100110011100 aaaac

#357001
0aaaab

#357002
1aaaab
b1010101001011 aaaad
b1111111100011101 aaaae

#358000
0aaaaa

#360000
1aaaaa
b1100000000000000000010 aaaac

#360001
0aaaab

#360002
1aaaab
b1001000011110 aaaad
b1111111101011100 aaaae

#361000
0aaaaa

#363000
1aaaaa
b1100000110011001101001 aaaac

#363001
0aaaab

#363002
1aaaab
b111011101011 aaaad
b1111111110010001 aaaae

#364000
0aaaaa

#366000
1aaaaa
b1100001100110011001111 aaaac

#366001
0aaaab

#366002
1aaaab
b101110111001 aaaad
b1111111110111011 aaaae

#367000
0aaaaa

#369000
1aaaaa
b1100010011001100110110 aaaac

#369001
0aaaab

#369002
1aaaab
b100010000101 aaaad
b1111111111011100 aaaae

#370000
0aaaaa

#372000
1aaaaa
b1100011001100110011100 aaaac

#372001
0aaaab

#372002
1aaaab
b10101010010 aaaad
b1111111111110010 aaaae

#373000
0aaaaa

#375000
1aaaaa
b1100100000000000000011 aaaac

#375001
0aaaab

#375002
1aaaab
b1000011111 aaaad
b1111111111111110 aaaae

#376000
0aaaaa

#378000
1aaaaa
b1100100010000110000011 aaaac

#378001
0aaaab

#378002
1aaaab
b100010011 aaaad
b1111111111111111 aaaae

#379000
0aaaaa

#381000
1aaaaa
b1100011011101100011101 aaaac

#381001
0aaaab

#381002
1aaaab
b10001000110 aaaad
b1111111111110111 aaaae

#382000
0aaaaa

#384000
1aaaaa
b1100010101010010110110 aaaac

#384001
0aaaab

#384002
1aaaab
b11101111001 aaaad
b1111111111100100 aaaae

#385000
0aaaaa

#387000
1aaaaa
b1100001110111001010000 aaaac

#387001
0aaaab

#387002
1aaaab
b101010101101 aaaad
b1111111111000111 aaaae

#388000
0aaaaa

#390000
1aaaaa
b1100001000011111101001 aaaac

#390001
0aaaab

#390002
1aaaab
b110111100000 aaaad
b1111111110100000 aaaae

#391000
0aaaaa

#393000
1aaaaa
b1100000010000110000011 aaaac

#393001
0aaaab

#393002
1aaaab
b1000100010010 aaaad
b1111111101101110 aaaae

#394000
0aaaaa

#396000
1aaaaa
b1011111011101100011100 aaaac

#396001
0aaaab

#396002
1aaaab
b1010001000000 aaaad
b1111111100110011 aaaae

#397000
0aaaaa

#399000
1aaaaa
b1011110101010010110110 aaaac

#399001
0aaaab

#399002
1aaaab
b1011101110001 aaaad
b1111111011101101 aaaae

#400000
0aaaaa

#402000
1aaaaa
b1011101110111001001111 aaaac

#402001
0aaaab

#402002
1aaaab
b1101010100001 aaaad
b1111111010011101 aaaae

#403000
0aaaaa

#405000
1aaaaa
b1011101000011111101001 aaaac

#405001
0aaaab

#405002
1aaaab
b1110111010000 aaaad
b1111111001000010 aaaae

#406000
0aaaaa

#408000
1aaaaa
b1011100010000110000010 aaaac

#408001
0aaaab

#408002
1aaaab
b10000011111101 aaaad
b1111110111011110 aaaae

#409000
0aaaaa

#411000
1aaaaa
b1011011011101100011100 aaaac

#411001
0aaaab

#411002
1aaaab
b10010000101001 aaaad
b1111110101101111 aaaae

#412000
0aaaaa

#414000
1aaaaa
b1011010101010010110101 aaaac

#414001
0aaaab

#414002
1aaaab
b10011101010100 aaaad
b1111110011110110 aaaae

#415000
0aaaaa

#417000
1aaaaa
b1011001110111001001111 aaaac

#417001
0aaaab

#417002
1aaaab
b10101001111001 aaaad
b1111110001110100 aaaae

#418000
0aaaaa

#420000
1aaaaa
b1011001000011111101000 aaaac

#420001
0aaaab

#420002
1aaaab
b10110110100001 aaaad
b1111101111100111 aaaae

#421000
0aaaaa

#423000
1aaaaa
b1011000010000110000010 aaaac

#423001
0aaaab

#423002
1aaaab
b11000011000111 aaaad
b1111101101001111 aaaae

#424000
0aaaaa

#426000
1aaaaa
b1010111011101100011011 aaaac

#426001
0aaaab

#426002
1aaaab
b11001111101010 aaaad
b1111101010101110 aaaae

#427000
0aaaaa

#429000
1aaaaa
b1010110101010010110101 aaaac

#429001
0aaaab

#429002
1aaaab
b11011100001100 aaaad
b1111101000000011 aaaae

#430000
0aaaaa

#432000
1aaaaa
b1010101110111001001110 aaaac

#432001
0aaaab

#432002
1aaaab
b11101000101011 aaaad
b1111100101001110 aaaae

#433000
0aaaaa

#435000
1aaaaa
b1010101000011111101000 aaaac

#435001
0aaaab

#435002
1aaaab
b11110101001000 aaaad
b1111100010001110 aaaae

#436000
0aaaaa

#438000
1aaaaa
b1010100010000110000001 aaaac

#438001
0aaaab

#438002
1aaaab
b100000001011111 aaaad
b1111011111000110 aaaae

#439000
0aaaaa

#441000
1aaaaa
b1010011011101100011011 aaaac

#441001
0aaaab

#441002
1aaaab
b100001101110111 aaaad
b1111011011110011 aaaae

#442000
0aaaaa

#444000
1aaaaa
b1010010101010010110100 aaaac

#444001
0aaaab

#444002
1aaaab
b100011010001100 aaaad
b1111011000010110 aaaae

#445000
0aaaaa

#447000
1aaaaa
b1010001110111001001110 aaaac

#447001
0aaaab

#447002
1aaaab
b100100110011111 aaaad
b1111010100101111 aaaae

#448000
0aaaaa

#450000
1aaaaa
b1010001000011111100111 aaaac

#450001
0aaaab

#450002
1aaaab
b100110010101111 aaaad
b1111010000111111 aaaae

#451000
0aaaaa

#453000
1aaaaa
b1010000010000110000001 aaaac

#453001
0aaaab

#453002
1aaaab
b100111110111100 aaaad
b1111001101000100 aaaae

#454000
0aaaaa

#456000
1aaaaa
b1001111011101100011010 aaaac

#456001
0aaaab

#456002
1aaaab
b101001011000100 aaaad
b1111001001000000 aaaae

#457000
0aaaaa

#459000
1aaaaa
b1001110101010010110100 aaaac

#459001
0aaaab

#459002
1aaaab
b101010111001010 aaaad
b1111000100110011 aaaae

#460000
0aaaaa

#462000
1aaaaa
b1001101110111001001101 aaaac

#462001
0aaaab

#462002
1aaaab
b101100011001001 aaaad
b1111000000011100 aaaae

#463000
0aaaaa

#465000
1aaaaa
b1001101000011111100111 aaaac

#465001
0aaaab

#465002
1aaaab
b101101111001000 aaaad
b1110111011111011 aaaae

#466000
0aaaaa

#468000
1aaaaa
b1001100010000110000000 aaaac

#468001
0aaaab

#468002
1aaaab
b101111011000100 aaaad
b1110110111010000 aaaae

#469000
0aaaaa

#471000
1aaaaa
b1001011011101100011010 aaaac

#471001
0aaaab

#471002
1aaaab
b110000110111011 aaaad
b1110110010011100 aaaae

#472000
0aaaaa

#474000
1aaaaa
b1001010101010010110011 aaaac

#474001
0aaaab

#474002
1aaaab
b110010010101111 aaaad
b1110101101011111 aaaae

#475000
0aaaaa

#477000
1aaaaa
b1001001110111001001101 aaaac

#477001
0aaaab

#477002
1aaaab
b110011110011110 aaaad
b1110101000011000 aaaae

#478000
0aaaaa

#480000
1aaaaa
b1001001000011111100110 aaaac

#480001
0aaaab

#480002
1aaaab
b110101010001010 aaaad
b1110100011000111 aaaae

#481000
0aaaaa

#483000
1aaaaa
b1001000010000110000000 aaaac

#483001
0aaaab

#483002
1aaaab
b110110101101110 aaaad
b1110011101101111 aaaae

#484000
0aaaaa

#486000
1aaaaa
b1000111011101100011001 aaaac

#486001
0aaaab

#486002
1aaaab
b111000001010100 aaaad
b1110011000001010 aaaae

#487000
0aaaaa

#489000
1aaaaa
b1000110101010010110011 aaaac

#489001
0aaaab

#489002
1aaaab
b111001100101111 aaaad
b1110010010100000 aaaae

#490000
0aaaaa

#492000
1aaaaa
b1000101110111001001100 aaaac

#492001
0aaaab

#492002
1aaaab
b111011000001001 aaaad
b1110001100101010 aaaae

#493000
0aaaaa

#495000
1aaaaa
b1000101000011111100110 aaaac

#495001
0aaaab

#495002
1aaaab
b111100011011110 aaaad
b1110000110101100 aaaae

#496000
0aaaaa

#498000
1aaaaa
b1000100010000101111111 aaaac

#498001
0aaaab

#498002
1aaaab
b111101110101110 aaaad
b1110000000100100 aaaae

#499000
0aaaaa

#501000
1aaaaa
b1000011011101100011001 aaaac

#501001
0aaaab

#501002
1aaaab
b111111001111001 aaaad
b1101111010010100 aaaae

#502000
0aaaaa

#504000
1aaaaa
b1000010101010010110010 aaaac

#504001
0aaaab

#504002
1aaaab
b1000000100111111 aaaad
b1101110011111010 aaaae

#505000
0aaaaa

#507000
1aaaaa
b1000001110111001001100 aaaac

#507001
0aaaab

#507002
1aaaab
b1000001111111101 aaaad
b1101101101011010 aaaae

#508000
0aaaaa

#510000
1aaaaa
b1000001000011111100101 aaaac

#510001
0aaaab

#510002
1aaaab
b1000011010111001 aaaad
b1101100110101111 aaaae

#511000
0aaaaa

#513000
1aaaaa
b1000000010000101111111 aaaac

#513001
0aaaab

#513002
1aaaab
b1000100101101111 aaaad
b1101011111111011 aaaae

#514000
0aaaaa

#516000
1aaaaa
b111111011101100011000 aaaac

#516001
0aaaab

#516002
1aaaab
b1000110000100000 aaaad
b1101011000111111 aaaae

#517000
0aaaaa

#519000
1aaaaa
b111110101010010110010 aaaac

#519001
0aaaab

#519002
1aaaab
b1000111011001011 aaaad
b1101010001111010 aaaae

#520000
0aaaaa

#522000
1aaaaa
b111101110111001001011 aaaac

#522001
0aaaab

#522002
1aaaab
b1001000101110001 aaaad
b1101001010101100 aaaae

#523000
0aaaaa

#525000
1aaaaa
b111101000011111100101 aaaac

#525001
0aaaab

#525002
1aaaab
b1001010000001101 aaaad
b1101000011011000 aaaae

#526000
0aaaaa

#528000
1aaaaa
b111100010000101111110 aaaac

#528001
0aaaab

#528002
1aaaab
b1001011010101010 aaaad
b1100111011111000 aaaae

#529000
0aaaaa

#531000
1aaaaa
b111011011101100011000 aaaac

#531001
0aaaab

#531002
1aaaab
b1001100100111010 aaaad
b1100110100010100 aaaae

#532000
0aaaaa

#534000
1aaaaa
b111010101010010110001 aaaac

#534001
0aaaab

#534002
1aaaab
b1001101111001000 aaaad
b1100101100100101 aaaae

#535000
0aaaaa

#537000
1aaaaa
b111001110111001001011 aaaac

#537001
0aaaab

#537002
1aaaab
b1001111001010000 aaaad
b1100100100101110 aaaae

#538000
0aaaaa

